"","Negative","Positive"
"1803",0.0476,0.9524
"1031",0.8496,0.1504
"1482",0.8066,0.1934
"1765",0.7932,0.2068
"76",0.8664,0.1336
"1107",0.812,0.188
"1620",0.8078,0.1922
"403",0.9964,0.0036
"1390",0.9042,0.0958
"1627",0.5182,0.4818
"298",0.9582,0.0418
"136",0.3748,0.6252
"1917",0.9148,0.0852
"364",0.9626,0.0374
"1496",0.5792,0.4208
"1563",0.622,0.378
"732",0.8588,0.1412
"904",0.7648,0.2352
"1252",0.9608,0.0392
"397",0.2774,0.7226
"197",0.9246,0.0754
"420",0.0496,0.9504
"776",0.97,0.03
"1738",0.283,0.717
"1108",0.9966,0.0034
"1148",0.7718,0.2282
"1919",0.3368,0.6632
"1299",0.8234,0.1766
"1162",0.9792,0.0208
"799",0.9996,4e-04
"1300",0.6006,0.3994
"1464",0.215,0.785
"1690",0.4144,0.5856
"1712",0.9984,0.0016
"1339",0.11,0.89
"1779",0.8304,0.1696
"1564",0.7704,0.2296
"544",0.8788,0.1212
"419",0.2732,0.7268
"1581",0.9984,0.0016
"1691",0.6986,0.3014
"171",0.8616,0.1384
"712",0.5396,0.4604
"1602",0.2806,0.7194
"970",0.0956,0.9044
"1264",0.1588,0.8412
"815",0.5798,0.4202
"1066",0.0434,0.9566
"1350",0.5574,0.4426
"1115",0.9676,0.0324
"262",0.3444,0.6556
"1892",0.2032,0.7968
"749",0.5452,0.4548
"1823",0.6886,0.3114
"849",0.9456,0.0544
"465",0.5492,0.4508
"1843",0.4048,0.5952
"1700",0.9904,0.0096
"995",0.516,0.484
"852",0.7718,0.2282
"563",0.6052,0.3948
"153",0.9958,0.0042
"1740",0.394,0.606
"1784",0.9682,0.0318
"947",0.4302,0.5698
"1446",0.6502,0.3498
"1253",0.17,0.83
"413",0.949,0.051
"896",8e-04,0.9992
"248",0.4104,0.5896
"1200",0.406,0.594
"115",0.607,0.393
"1427",0.9954,0.0046
"1717",0.99,0.01
"701",0.3192,0.6808
"1016",0.6136,0.3864
"1142",0.1232,0.8768
"131",0.053,0.947
"634",0.4584,0.5416
"975",0.8874,0.1126
"1379",0.7524,0.2476
"83",0.971,0.029
"222",0.9812,0.0188
"1114",0.9306,0.0694
"69",0.9154,0.0846
"87",0.9932,0.0068
"955",0.909,0.091
"1578",0.5242,0.4758
"1442",0.8886,0.1114
"764",0.4684,0.5316
"1232",0.9758,0.0242
"1369",0.7288,0.2712
"876",0.9636,0.0364
"1481",0.363,0.637
"467",0.2668,0.7332
"946",0.9782,0.0218
"164",0.8564,0.1436
"305",0.0392,0.9608
"1686",0.0622,0.9378
"1889",0.4144,0.5856
"1098",0.3298,0.6702
"1820",0.88,0.12
"1024",0.386,0.614
"281",0.7536,0.2464
"1046",0.9396,0.0604
"306",0.3512,0.6488
"792",0.8788,0.1212
"699",0.3096,0.6904
"1814",0.8936,0.1064
"191",0.8522,0.1478
"1867",0.982,0.018
"451",0.3274,0.6726
"1205",0.995,0.005
"869",0.3762,0.6238
"1485",0.9938,0.0062
"1428",0.993,0.007
"1897",0.5426,0.4574
"456",0.194,0.806
"933",0.7222,0.2778
"635",0.994,0.006
"1312",0.0148,0.9852
"1357",0.9976,0.0024
"1259",0.8596,0.1404
"29",0.8448,0.1552
"484",0.3596,0.6404
"1688",0.8254,0.1746
"834",0.973,0.027
"146",0.7192,0.2808
"461",0.6364,0.3636
"1710",0.245,0.755
"224",0.5502,0.4498
"1556",0.983,0.017
"1117",0.93,0.07
"813",0.0808,0.9192
"994",0.9544,0.0456
"1904",0.8618,0.1382
"1188",0.3908,0.6092
"806",0.0792,0.9208
"1527",0.7826,0.2174
"1334",0.9904,0.0096
"900",0.9834,0.0166
"794",0.8086,0.1914
"109",0.994,0.006
"1847",0.0054,0.9946
"399",0.9878,0.0122
"1858",0.4404,0.5596
"519",0.991,0.009
"1516",0.9228,0.0772
"1893",0.9486,0.0514
"1043",0.9506,0.0494
"1180",0.8914,0.1086
"1155",0.9934,0.0066
"1821",0.8298,0.1702
"1342",0.664,0.336
"758",0.9648,0.0352
"1305",0.9544,0.0456
"1495",0.9604,0.0396
"320",0.439,0.561
"1072",0.6372,0.3628
"814",0.9794,0.0206
"1365",0.9222,0.0778
"692",0.9688,0.0312
"1840",0.7146,0.2854
"1330",0.9294,0.0706
"1757",0.7896,0.2104
"1438",0.6292,0.3708
"988",0.7344,0.2656
"671",0.9946,0.0054
"703",0.8688,0.1312
"968",0.4388,0.5612
"1308",0.529,0.471
"1722",0.9552,0.0448
"944",0.296,0.704
"47",0.3482,0.6518
"660",0.3762,0.6238
"367",0.665,0.335
"793",0.7866,0.2134
"717",0.996,0.004
"1524",0.9338,0.0662
"243",0.3592,0.6408
"474",0.3784,0.6216
"412",0.808,0.192
"843",0.7114,0.2886
"522",0.6228,0.3772
"477",0.1238,0.8762
"983",0.9406,0.0594
"1596",0.852,0.148
"1042",0.4772,0.5228
"27",0.9768,0.0232
"1746",0.9572,0.0428
"1519",0.9924,0.0076
"1214",0.9998,2e-04
"381",0.4376,0.5624
"1907",0.693,0.307
"846",0.9232,0.0768
"990",0.9472,0.0528
"1632",0.045,0.955
"1531",0.394,0.606
"1241",0.8476,0.1524
"672",0.7866,0.2134
"448",0.8438,0.1562
"833",0.5626,0.4374
"1498",0.87,0.13
"1333",0.2938,0.7062
"1884",0.9396,0.0604
"194",0.4976,0.5024
"73",0.77,0.23
"142",0.1218,0.8782
"1476",0.0596,0.9404
"1577",0.9992,8e-04
"1645",0.3942,0.6058
"1233",0.8344,0.1656
"18",0.5778,0.4222
"711",0.786,0.214
"1848",0.1586,0.8414
"576",0.3516,0.6484
"1070",0.4428,0.5572
"1636",0.9794,0.0206
"3",0.4076,0.5924
"1522",0.7422,0.2578
"1497",0.847,0.153
"1761",0.9436,0.0564
"902",0.6306,0.3694
"624",0.9014,0.0986
"722",0.7968,0.2032
"1311",0.9924,0.0076
"124",0.9332,0.0668
"1711",0.9462,0.0538
"382",0.8258,0.1742
"150",0.9368,0.0632
"1490",0.6458,0.3542
"70",0.52,0.48
"199",0.9926,0.0074
"411",0.9568,0.0432
"1775",0.6718,0.3282
"826",0.8858,0.1142
"1646",0.911,0.089
"1705",0.72,0.28
"579",0.5378,0.4622
"548",0.963,0.037
"494",0.6602,0.3398
"112",0.4818,0.5182
"162",0.9872,0.0128
"723",0.8782,0.1218
"452",0.995,0.005
"344",0.803,0.197
"1049",0.9738,0.0262
"788",0.9824,0.0176
"540",0.9628,0.0372
"1923",0.9754,0.0246
"1809",0.1696,0.8304
"1672",0.6184,0.3816
"1258",0.9988,0.0012
"1424",0.2364,0.7636
"932",0.9896,0.0104
"249",0.0746,0.9254
"581",0.6904,0.3096
"1374",0.9394,0.0606
"819",0.902,0.098
"1387",0.085,0.915
"1500",0.998,0.002
"209",0.974,0.026
"914",0.5726,0.4274
"1198",0.977,0.023
"678",0.4354,0.5646
"132",0.9254,0.0746
"16",0.7658,0.2342
"1091",0.6342,0.3658
"1616",0.8676,0.1324
"259",0.0012,0.9988
"642",0.9114,0.0886
"120",0.9058,0.0942
"405",0.9696,0.0304
"550",0.6256,0.3744
"1683",0.0304,0.9696
"1061",0.85,0.15
"528",0.3212,0.6788
"510",0.8846,0.1154
"560",0.9684,0.0316
"1727",0.9956,0.0044
"1127",0.9972,0.0028
"438",0.0662,0.9338
"14",0.9814,0.0186
"1163",0.0428,0.9572
"478",0.9454,0.0546
"1116",0.9802,0.0198
"1249",0.5578,0.4422
"1039",0.0368,0.9632
"987",0.173,0.827
"924",8e-04,0.9992
"835",0.6858,0.3142
"898",0.9818,0.0182
"1667",0.6008,0.3992
"1051",0.7594,0.2406
"443",0.9978,0.0022
"637",0.8342,0.1658
"608",0.2394,0.7606
"1400",0.9044,0.0956
"734",0.8292,0.1708
"680",0.085,0.915
"292",0.374,0.626
"91",0.9928,0.0072
"1785",0.9842,0.0158
"226",0.3728,0.6272
"971",0.7834,0.2166
"691",8e-04,0.9992
"48",0.7776,0.2224
"1419",0.9948,0.0052
"1501",0.4788,0.5212
"103",0.712,0.288
"940",0.0792,0.9208
"1416",0.544,0.456
"1021",0.894,0.106
"151",0.9888,0.0112
"1924",0.213,0.787
"1010",0.8464,0.1536
"1664",0.6692,0.3308
"439",0.7768,0.2232
"745",0.9604,0.0396
"716",0.6636,0.3364
"1128",0.5536,0.4464
"30",0.4838,0.5162
"539",0.7802,0.2198
"71",0.9822,0.0178
"1480",0.002,0.998
"964",0.8754,0.1246
"1319",0.9988,0.0012
"1025",0.3786,0.6214
"1213",0.967,0.033
"1671",0.9942,0.0058
"156",0.2104,0.7896
"313",0.2538,0.7462
"58",0.9642,0.0358
"649",0.654,0.346
"1573",0.5188,0.4812
"935",0.11,0.89
"183",0.999,0.001
"1890",0.8344,0.1656
"1284",0.9928,0.0072
"232",0.5428,0.4572
"1660",0.9786,0.0214
"1378",0.8748,0.1252
"1583",0.9802,0.0198
"627",0.7506,0.2494
"575",0.621,0.379
"1521",0.561,0.439
"1790",0.4598,0.5402
"1018",0.9046,0.0954
"212",0.984,0.016
"64",0.9868,0.0132
"1793",0.242,0.758
"541",0.2964,0.7036
"623",0.934,0.066
"1313",0.5388,0.4612
"1618",0.599,0.401
"1716",0.2958,0.7042
"354",0.9296,0.0704
"582",0.9846,0.0154
"632",0.683,0.317
"79",0.9158,0.0842
"238",0.7978,0.2022
"1376",0.413,0.587
"1160",0.2734,0.7266
"1396",0.906,0.094
"1173",0.6534,0.3466
"330",0.4408,0.5592
"1030",0.4302,0.5698
"1423",0.99,0.01
"165",0.9964,0.0036
"1261",0.8746,0.1254
"373",0.4674,0.5326
"884",0.9806,0.0194
"1245",0.0556,0.9444
"490",0.6112,0.3888
"133",0.3132,0.6868
"1106",0.9326,0.0674
"1619",0.283,0.717
"217",0.958,0.042
"1666",0.9792,0.0208
"644",0.8924,0.1076
"676",0.6156,0.3844
"1469",0.903,0.097
"1808",0.9282,0.0718
"1570",0.7952,0.2048
"1422",0.9388,0.0612
"631",0.9456,0.0544
"1362",0.9082,0.0918
"573",0.2924,0.7076
"1237",0.6996,0.3004
"331",0.1126,0.8874
"1811",0.4868,0.5132
"1486",0.11,0.89
"1435",0.627,0.373
"1685",0.6296,0.3704
"291",0.1626,0.8374
"1915",0.819,0.181
"1254",0.9972,0.0028
"1753",0.82,0.18
"751",0.1124,0.8876
"1034",0.8498,0.1502
"1547",0.0932,0.9068
"670",0.6116,0.3884
"1693",0.6874,0.3126
"1886",0.7202,0.2798
"1839",0.8804,0.1196
"555",0.9238,0.0762
"1743",0.9174,0.0826
"1899",0.9888,0.0112
"986",0.8016,0.1984
"1144",0.3468,0.6532
"857",0.9966,0.0034
"7",0.8714,0.1286
"861",0.9732,0.0268
"1135",0.979,0.021
"1903",0.997,0.003
"223",0.9812,0.0188
"421",0.8114,0.1886
"771",0.541,0.459
"600",0.96,0.04
"127",0.4718,0.5282
"816",0.9538,0.0462
"1861",0.293,0.707
"1081",0.971,0.029
"1151",0.7714,0.2286
"1601",0.9434,0.0566
"1736",0.5884,0.4116
"1297",0.0924,0.9076
"726",0.7228,0.2772
"1321",0.8102,0.1898
"380",0.4442,0.5558
"597",0.4912,0.5088
"1798",0.981,0.019
"1589",0.1278,0.8722
"286",0.9892,0.0108
"598",0.8858,0.1142
"559",0.982,0.018
"989",0.184,0.816
"231",0.9556,0.0444
"1902",0.4468,0.5532
"168",0.9604,0.0396
"981",0.9354,0.0646
"1853",0.698,0.302
"276",0.9478,0.0522
"88",0.9834,0.0166
"332",0.7924,0.2076
"1044",0.9444,0.0556
"1326",0.9506,0.0494
"1792",0.9842,0.0158
"890",0.8484,0.1516
"588",0.812,0.188
"1441",0.8894,0.1106
"783",0.9942,0.0058
"350",0.6266,0.3734
"938",0.9816,0.0184
"423",0.9942,0.0058
"1110",0.5826,0.4174
"1402",0.8872,0.1128
"210",0.62,0.38
"1562",0.8498,0.1502
"882",0.6116,0.3884
"594",0.972,0.028
"1359",0.5572,0.4428
"20",0.0506,0.9494
"1414",0.7652,0.2348
"1702",0.665,0.335
"487",0.8624,0.1376
"1130",0.5244,0.4756
"1844",0.4006,0.5994
"240",0.1316,0.8684
"747",0.3778,0.6222
"596",0.4912,0.5088
"1139",0.9884,0.0116
"537",0.613,0.387
"1724",0.393,0.607
"280",0.9342,0.0658
"464",0.7416,0.2584
"425",0.8984,0.1016
"1100",0.9018,0.0982
"1053",0.7874,0.2126
"1826",0.728,0.272
"1503",0.5546,0.4454
"769",0.9844,0.0156
"100",0.796,0.204
"1891",0.6332,0.3668
"1418",0.684,0.316
"709",0.994,0.006
"9",0.952,0.048
"1735",0.924,0.076
"263",0.3268,0.6732
"301",0.9836,0.0164
"1291",0.0428,0.9572
"204",0.9508,0.0492
"46",0.0094,0.9906
"589",0.2434,0.7566
"574",0.621,0.379
"417",0.0398,0.9602
"1248",0.6354,0.3646
"161",0.2246,0.7754
"1599",0.0564,0.9436
"230",0.9516,0.0484
"181",0.1932,0.8068
"442",0.2502,0.7498
"329",0.2232,0.7768
"13051",0.2564,0.7436
"871",0.9738,0.0262
"1246",0.0628,0.9372
"12531",0.6378,0.3622
"229",0.9934,0.0066
"661",0.002,0.998
"295",0.1682,0.8318
"66",0.8012,0.1988
"1207",0.283,0.717
"188",0.8156,0.1844
"6371",0.8342,0.1658
"1222",0.0738,0.9262
"472",0.065,0.935
"272",0.8576,0.1424
"363",0.3748,0.6252
"1026",0.2218,0.7782
"502",0.293,0.707
"895",0.0518,0.9482
"1260",0.8758,0.1242
"139",0.8572,0.1428
"1322",0.0012,0.9988
"31",0.9556,0.0444
"963",0.32,0.68
"7831",0.2718,0.7282
"804",0.005,0.995
"926",0.755,0.245
"268",0.0074,0.9926
"513",0.0028,0.9972
"304",0.4094,0.5906
"8841",0.3748,0.6252
"187",0.273,0.727
"1093",0.2284,0.7716
"13001",0.0054,0.9946
"6921",0.014,0.986
"892",0.0056,0.9944
"798",0.8138,0.1862
"1120",0.0724,0.9276
"731",4e-04,0.9996
"1451",0.8956,0.1044
"753",0.0492,0.9508
"458",0.3798,0.6202
"1292",0.7274,0.2726
"1421",0.2846,0.7154
"689",0.0046,0.9954
"2241",0.9656,0.0344
"911",0.9196,0.0804
"928",0.4504,0.5496
"683",0.149,0.851
"842",0.172,0.828
"101",0.0064,0.9936
"3131",0.4914,0.5086
"14411",0.1874,0.8126
"317",0.0964,0.9036
"13741",0.6366,0.3634
"1152",0.3946,0.6054
"279",0.0018,0.9982
"435",0.8888,0.1112
"99",0.0166,0.9834
"1405",0.0158,0.9842
"4901",0.8402,0.1598
"9871",0.0448,0.9552
"930",0.1794,0.8206
"269",0.4214,0.5786
"1459",0.11,0.89
"587",4e-04,0.9996
"13421",0.331,0.669
"1462",0.0014,0.9986
"643",0.877,0.123
"1219",0.1124,0.8876
"2631",0.1246,0.8754
"1445",0.0106,0.9894
"791",0.003,0.997
"1009",0.5906,0.4094
"159",0.002,0.998
"4611",0.6052,0.3948
"867",0.0026,0.9974
"710",0.1274,0.8726
"1149",0.4968,0.5032
"26",0.5634,0.4366
"1038",0.7582,0.2418
"592",0.0056,0.9944
"818",0.1104,0.8896
"178",0.644,0.356
"235",0.641,0.359
"538",0.0862,0.9138
"328",0.0022,0.9978
"253",0.4174,0.5826
"11001",0.438,0.562
"978",0.0232,0.9768
"1183",0.511,0.489
"13301",0.0428,0.9572
"1348",0.002,0.998
"727",0.8516,0.1484
"1140",0.0706,0.9294
"1003",0,1
"5391",0.9574,0.0426
"130",0.5344,0.4656
"1075",0.4722,0.5278
"13651",0.134,0.866
"5191",0.0396,0.9604
"943",0.11,0.89
"10181",0.63,0.37
"13341",0.4234,0.5766
"1468",0.3064,0.6936
"147",0.0878,0.9122
"1208",4e-04,0.9996
"931",0.8444,0.1556
"654",0.8782,0.1218
"138",0.6628,0.3372
"40",0.1468,0.8532
"3801",0.0184,0.9816
"803",0.0036,0.9964
"11981",0.3218,0.6782
"1466",0.6104,0.3896
"1002",0.7118,0.2882
"1335",0.3244,0.6756
"2321",0.198,0.802
"504",0.0416,0.9584
"779",0.744,0.256
"24",0.9498,0.0502
"610",0.1138,0.8862
"830",0.1484,0.8516
"177",0.644,0.356
"4231",0.1204,0.8796
"63",0.7518,0.2482
"1561",0.7858,0.2142
"1177",0.0766,0.9234
"1001",0.628,0.372
"1094",0.3748,0.6252
"4771",0.7444,0.2556
"225",0.1202,0.8798
"4671",0.8738,0.1262
"1095",0,1
"345",0.0428,0.9572
"1458",0.013,0.987
"123",0.6766,0.3234
"19",0.809,0.191
"396",0.1008,0.8992
"11161",0.2996,0.7004
"1286",0.8348,0.1652
"198",0.9462,0.0538
"1276",0.0018,0.9982
"141",0.7532,0.2468
"1443",0.6338,0.3662
"277",0.6964,0.3036
"341",0.3202,0.6798
"1172",0.9352,0.0648
"4641",0.042,0.958
"941",0.4522,0.5478
"184",0.1568,0.8432
"1434",0.499,0.501
"499",0.316,0.684
"1278",0.0978,0.9022
"557",0.156,0.844
"1399",0.9406,0.0594
"1153",0.0316,0.9684
"1105",0.2888,0.7112
"1331",0.0014,0.9986
"1282",0.0096,0.9904
"12911",0.0022,0.9978
"1189",0.0428,0.9572
"4941",0.0076,0.9924
"1164",0.0014,0.9986
"1413",0.0206,0.9794
"1361",0.6572,0.3428
"321",0.6208,0.3792
"218",0.3856,0.6144
"72",0.363,0.637
"337",0.9342,0.0658
"845",0.0014,0.9986
"855",0.1702,0.8298
"98",0.3026,0.6974
"991",0.0448,0.9552
"2381",0.0192,0.9808
"1174",0.1194,0.8806
"1223",0.0324,0.9676
"967",0.006,0.994
"213",0.8312,0.1688
"129",0.3056,0.6944
"1132",0.096,0.904
"1611",0.002,0.998
"639",0.006,0.994
"324",0.994,0.006
"1060",0.4036,0.5964
"720",0.569,0.431
"395",0.1262,0.8738
"1088",0.7108,0.2892
"1403",0.4634,0.5366
"25",0.3564,0.6436
"192",0.0692,0.9308
"1080",0.982,0.018
"216",0.4084,0.5916
"6321",0.098,0.902
"1069",0.3454,0.6546
"14001",0.9524,0.0476
"1190",8e-04,0.9992
"5941",0.1706,0.8294
"862",0.731,0.269
"3321",0.058,0.942
"638",0.172,0.828
"237",0.5958,0.4042
"1234",0.0736,0.9264
"1242",0.1868,0.8132
"1",0.8456,0.1544
"5791",0.0032,0.9968
"43",0.248,0.752
"1354",0.0084,0.9916
"108",0.1194,0.8806
"206",0.0058,0.9942
"529",0.0368,0.9632
"893",4e-04,0.9996
"1283",0.5376,0.4624
"4131",0.2298,0.7702
"1048",0.9028,0.0972
"549",4e-04,0.9996
"408",0.6824,0.3176
"950",0.564,0.436
"41",0.2698,0.7302
"8521",0.0014,0.9986
"645",0.4264,0.5736
"8151",0.321,0.679
"1408",0.0808,0.9192
"583",0.7194,0.2806
"1456",0.2544,0.7456
"1409",0.002,0.998
"546",0.8988,0.1012
"918",0.2552,0.7448
"4051",0.3954,0.6046
"460",0.0024,0.9976
"476",0.2536,0.7464
"811",0.0228,0.9772
"1179",0.4578,0.5422
"1432",0.7808,0.2192
"923",0.0428,0.9572
"7321",0.2548,0.7452
"398",0.7874,0.2126
"1426",0.112,0.888
"10161",0.7184,0.2816
"1467",0.9776,0.0224
"386",0.9716,0.0284
"8061",0.2796,0.7204
"9751",0.278,0.722
"565",8e-04,0.9992
"725",0.6688,0.3312
"742",0.6586,0.3414
"518",0.3146,0.6854
"297",0.0212,0.9788
"1166",0.6738,0.3262
"1085",4e-04,0.9996
"1036",0.089,0.911
"735",0.3428,0.6572
"303",0.2746,0.7254
"1236",8e-04,0.9992
"1005",0.004,0.996
"1062",0.5894,0.4106
"808",0.6056,0.3944
"11551",0.0114,0.9886
"84",0.0426,0.9574
"8341",0.1614,0.8386
"1050",0.6366,0.3634
"825",0.283,0.717
"1178",0.1478,0.8522
"728",0.0344,0.9656
"9891",0.3278,0.6722
"193",0.2474,0.7526
"1211",0.002,0.998
"1370",0.1466,0.8534
"375",0.4802,0.5198
"14241",0.6562,0.3438
"6721",0.1756,0.8244
"607",0.7974,0.2026
"86",0.1364,0.8636
"1341",0.8738,0.1262
"1281",0.0566,0.9434
"2761",0.2922,0.7078
"384",0.333,0.667
"388",0.7296,0.2704
"618",0.5186,0.4814
"1133",0.2858,0.7142
"1460",0.7784,0.2216
"50",0.556,0.444
"1058",0.021,0.979
"28",0.7188,0.2812
"8131",0.3792,0.6208
"786",4e-04,0.9996
"746",0.0742,0.9258
"508",0.3748,0.6252
"774",0.7032,0.2968
"12491",0.4788,0.5212
"11271",0.0568,0.9432
"10421",0.0594,0.9406
"2261",0.589,0.411
"12001",0.0084,0.9916
"1187",0.4578,0.5422
"1394",0.4422,0.5578
"917",0.8786,0.1214
"11141",4e-04,0.9996
"3051",0.1786,0.8214
"12991",0.2652,0.7348
"347",8e-04,0.9992
"910",0.2662,0.7338
"455",0.0014,0.9986
"979",0.008,0.992
"4481",0.007,0.993
"3501",0.233,0.767
"2301",0.1958,0.8042
"1381",0.329,0.671
"322",0.305,0.695
"569",0.2592,0.7408
"422",0.012,0.988
"719",0.9282,0.0718
"1109",0.0112,0.9888
"311",0.0316,0.9684
"1386",0.283,0.717
"246",0.886,0.114
"542",0.0438,0.9562
"1433",0.8284,0.1716
"38",0.1678,0.8322
"14271",0.9556,0.0444
"663",0.2342,0.7658
"1089",0.8738,0.1262
"1511",0.3732,0.6268
"404",0.5944,0.4056
"848",0.0014,0.9986
"284",0.033,0.967
"14181",0.126,0.874
"899",0.0068,0.9932
"860",0.109,0.891
"14221",0.6536,0.3464
"1078",0.8114,0.1886
"679",0.2034,0.7966
"1192",0.207,0.793
"264",0.0218,0.9782
"82",0.3578,0.6422
"288",0.2076,0.7924
"1206",0.283,0.717
"693",0.152,0.848
"202",4e-04,0.9996
"1457",0.711,0.289
"1447",0.457,0.543
"767",0.0014,0.9986
"4381",0.0444,0.9556
"912",0.0054,0.9946
"14461",0.6234,0.3766
"921",0.5584,0.4416
"506",0.0472,0.9528
"1102",0.3508,0.6492
"1007",0.2954,0.7046
"261",0.1814,0.8186
"12141",0.0428,0.9572
"1268",0.347,0.653
"532",0.062,0.938
"969",0.1158,0.8842
"270",0.8982,0.1018
"336",0.0022,0.9978
"6311",0.002,0.998
"11061",0.3192,0.6808
"864",0.1192,0.8808
"1121",0,1
"265",0.0276,0.9724
"378",0.126,0.874
"667",0.043,0.957
"12591",0.1294,0.8706
"646",0.2238,0.7762
"14191",0.283,0.717
"572",0.0094,0.9906
"469",0.556,0.444
"13591",0.248,0.752
"1228",0.0774,0.9226
"356",0.0844,0.9156
"564",0.0084,0.9916
"444",0.3186,0.6814
"152",0.3686,0.6314
"440",0.0326,0.9674
"154",0.0406,0.9594
"429",0.0326,0.9674
"1273",0.0196,0.9804
"698",0.1714,0.8286
"7581",0.2096,0.7904
"1351",0.8436,0.1564
"462",0.391,0.609
"863",0.9492,0.0508
"227",0.9778,0.0222
"780",0.6444,0.3556
"351",0.634,0.366
"4191",4e-04,0.9996
"327",0.0926,0.9074
"828",0.9954,0.0046
"61",0.3544,0.6456
"1971",0.051,0.949
"1448",0.463,0.537
"1345",0.026,0.974
"334",0.0874,0.9126
"9881",0.6052,0.3948
"580",0.1794,0.8206
"1197",0.0224,0.9776
"11351",0.6014,0.3986
"51",0.7216,0.2784
"13781",0.11,0.89
"5821",0.5456,0.4544
"7511",0.902,0.098
"93",0.2976,0.7024
"9901",0.0428,0.9572
"812",0.5848,0.4152
"1092",0.0602,0.9398
"12131",0.0892,0.9108
"6781",0.008,0.992
"916",0.0094,0.9906
"677",0.4596,0.5404
"488",0.9206,0.0794
"879",0.6142,0.3858
"6991",0.248,0.752
"1450",0.9108,0.0892
"11101",0.048,0.952
"1059",0.0696,0.9304
"369",0.3576,0.6424
"1353",0.062,0.938
"12",0.2326,0.7674
"1303",0.3488,0.6512
"913",0.7958,0.2042
"958",0.1332,0.8668
"8821",0.3296,0.6704
"870",0.4516,0.5484
"641",0.7834,0.2166
"95",0.4112,0.5888
"652",0.036,0.964
"11",0.95,0.05
"611",0.059,0.941
"1366",0.0024,0.9976
"11731",0.002,0.998
"10701",0.8738,0.1262
"365",0.397,0.603
"915",0.7268,0.2732
"1068",0.6434,0.3566
"215",0.1904,0.8096
"507",0.0412,0.9588
"781",0.0038,0.9962
"1440",0.7024,0.2976
"271",0.8982,0.1018
"1032",0.0314,0.9686
"2221",0.4082,0.5918
"1384",0.6676,0.3324
"11481",0.697,0.303
"2431",0.113,0.887
"463",0.012,0.988
"12051",0.2254,0.7746
"13131",0.28,0.72
"1082",0.066,0.934
"1196",0.0506,0.9494
"473",0.346,0.654
"349",0.0264,0.9736
"4651",0.0428,0.9572
"9331",0.8462,0.1538
"471",0.0038,0.9962
"370",0.1394,0.8606
"809",0.734,0.266
"1037",0.006,0.994
"254",0.4828,0.5172
"11881",0.1454,0.8546
"775",0.9002,0.0998
"11071",0.3342,0.6658
"105",0.0016,0.9984
"655",0.8728,0.1272
"319",0.5246,0.4754
"8331",0.3974,0.6026
"650",0.8414,0.1586
"5761",0.002,0.998
"1124",0.001,0.999
"1831",0.17,0.83
"4",0.556,0.444
"757",0.003,0.997
"713",0.7166,0.2834
"960",0.8972,0.1028
"5881",0.0022,0.9978
"3311",0.0438,0.9562
"493",0.5092,0.4908
"1064",0.032,0.968
"795",0.1414,0.8586
"524",0.0264,0.9736
"361",0.0502,0.9498
"1395",0.22,0.78
"343",0.2076,0.7924
"759",4e-04,0.9996
"1452",0.7424,0.2576
"704",0.9986,0.0014
"4391",0.002,0.998
"853",0.6302,0.3698
"4431",0.167,0.833
"17",0.3608,0.6392
"3671",0.9978,0.0022
"355",0.3844,0.6156
"5281",0.1618,0.8382
"6271",0.004,0.996
"1099",0.002,0.998
"937",0.005,0.995
"1202",0.0028,0.9972
"790",0.002,0.998
