Positive,1A5E_A,35,GLY
Positive,1A5E_A,67,GLY
Positive,1A5E_A,68,ALA
Positive,1A5E_A,74,ASP
Positive,1A5E_A,77,THR
Positive,1A5E_A,80,ARG
Positive,1A5E_A,81,PRO
Positive,1A5E_A,87,ARG
Positive,1A5E_A,97,LEU
Positive,1A5E_A,99,ARG
Positive,1A5E_A,100,ALA
Positive,1A5E_A,126,VAL