Negative,1BHG_A,34,PRO
Negative,1BHG_A,69,TRP
Negative,1BHG_A,116,ARG
Negative,1BHG_A,257,LYS
Negative,1BHG_A,285,VAL
Negative,1BHG_A,321,THR
Negative,1BHG_A,393,MET
Negative,1BHG_A,428,GLN
Negative,1BHG_A,598,PRO
Positive,1BHG_A,52,SER
Positive,1BHG_A,577,ARG
