Negative,1BZ1_C,24,GLU
Negative,1BZ1_C,13,ALA
Negative,1BZ1_C,9,THR
Negative,1BZ1_C,69,ASN
Negative,1BZ1_C,22,ALA
Negative,1BZ1_C,117,GLU
Negative,1BZ1_C,28,GLU
Negative,1BZ1_C,16,GLY
Negative,1BZ1_C,73,HIS
Positive,1BZ1_C,134,SER
Positive,1BZ1_C,2,VAL
Positive,1BZ1_C,3,LEU
Positive,1BZ1_C,7,ASP
Positive,1BZ1_C,14,ALA
Positive,1BZ1_C,15,TRP
Positive,1BZ1_C,25,TYR
Positive,1BZ1_C,27,ALA
Positive,1BZ1_C,32,ARG
Positive,1BZ1_C,41,LYS
Positive,1BZ1_C,42,THR
Positive,1BZ1_C,44,PHE
Positive,1BZ1_C,45,PRO
Positive,1BZ1_C,46,HIS
Positive,1BZ1_C,48,ASP
Positive,1BZ1_C,54,ALA
Positive,1BZ1_C,59,HIS
Positive,1BZ1_C,60,GLY
Positive,1BZ1_C,63,VAL
Positive,1BZ1_C,64,ALA
Positive,1BZ1_C,81,LEU
Positive,1BZ1_C,85,SER
Positive,1BZ1_C,86,ASP
Positive,1BZ1_C,87,LEU
Positive,1BZ1_C,88,HIS
Positive,1BZ1_C,89,ALA
Positive,1BZ1_C,91,LYS
Positive,1BZ1_C,92,LEU
Positive,1BZ1_C,93,ARG
Positive,1BZ1_C,95,ASP
Positive,1BZ1_C,96,PRO
Positive,1BZ1_C,98,ASN
Positive,1BZ1_C,104,HIS
Positive,1BZ1_C,110,LEU
Positive,1BZ1_C,111,ALA
Positive,1BZ1_C,113,HIS
Positive,1BZ1_C,126,LEU
Positive,1BZ1_C,127,ASP
Positive,1BZ1_C,130,LEU
Positive,1BZ1_C,131,ALA
Positive,1BZ1_C,132,SER
Positive,1BZ1_C,137,LEU
Positive,1BZ1_C,139,SER
Positive,1BZ1_C,140,LYS
Positive,1BZ1_C,141,TYR
Positive,1BZ1_C,142,ARG
