Negative,1BZM_A,130,SER
Negative,1BZM_A,84,PHE
Negative,1BZM_A,38,THR
Negative,1BZM_A,103,HIS
Negative,1BZM_A,135,ALA
Negative,1BZM_A,195,PRO
Negative,1BZM_A,241,MET
Negative,1BZM_A,236,ASP
Positive,1BZM_A,67,HIS
