Negative,1BZY_D,113,ILE
Negative,1BZY_D,33,ARG
Negative,1BZY_D,152,TYR
Negative,1BZY_D,153,ASN
Negative,1BZY_D,5,PRO
Negative,1BZY_D,90,ARG
Negative,1BZY_D,147,SER
Negative,1BZY_D,197,TYR
Negative,1BZY_D,28,ALA
Negative,1BZY_D,154,PRO
Positive,1BZY_D,6,GLY
Positive,1BZY_D,19,ASP
Positive,1BZY_D,40,LEU
Positive,1BZY_D,7,VAL
Positive,1BZY_D,15,GLY
Positive,1BZY_D,22,CYS
Positive,1BZY_D,41,ILE
Positive,1BZY_D,44,ARG
Positive,1BZY_D,47,ARG
Positive,1BZY_D,49,ALA
Positive,1BZY_D,50,ARG
Positive,1BZY_D,52,VAL
Positive,1BZY_D,53,MET
Positive,1BZY_D,56,MET
Positive,1BZY_D,57,GLY
Positive,1BZY_D,69,GLY
Positive,1BZY_D,70,GLY
Positive,1BZY_D,73,PHE
Positive,1BZY_D,77,LEU
Positive,1BZY_D,79,ASP
Positive,1BZY_D,103,SER
Positive,1BZY_D,109,SER
Positive,1BZY_D,129,VAL
Positive,1BZY_D,130,LEU
Positive,1BZY_D,131,ILE
Positive,1BZY_D,134,ASP
Positive,1BZY_D,142,MET
Positive,1BZY_D,160,ALA
Positive,1BZY_D,161,SER
Positive,1BZY_D,167,THR
Positive,1BZY_D,175,PRO
Positive,1BZY_D,176,ASP
Positive,1BZY_D,182,ILE
Positive,1BZY_D,193,ASP
Positive,1BZY_D,194,TYR
Positive,1BZY_D,198,PHE
Positive,1BZY_D,200,ASP
Positive,1BZY_D,203,HIS
Positive,1BZY_D,205,CYS
