Negative,1DXT_D,105,ARG
Negative,1DXT_D,126,PRO
Negative,1DXT_D,51,THR
Negative,1DXT_D,6,PRO
Negative,1DXT_D,57,GLY
Negative,1DXT_D,77,ALA
Negative,1DXT_D,52,PRO
Negative,1DXT_D,22,ASP
Negative,1DXT_D,34,VAL
Positive,1DXT_D,10,SER
Positive,1DXT_D,7,GLU
Positive,1DXT_D,52,PRO
Positive,1DXT_D,117,HIS
Positive,1DXT_D,22,ASP
Positive,1DXT_D,140,ASN
Positive,1DXT_D,2,VAL
Positive,1DXT_D,3,HIS
Positive,1DXT_D,12,VAL
Positive,1DXT_D,15,LEU
Positive,1DXT_D,16,TRP
Positive,1DXT_D,21,VAL
Positive,1DXT_D,23,GLU
Positive,1DXT_D,24,VAL
Positive,1DXT_D,25,GLY
Positive,1DXT_D,26,GLY
Positive,1DXT_D,28,ALA
Positive,1DXT_D,29,LEU
Positive,1DXT_D,30,GLY
Positive,1DXT_D,31,ARG
Positive,1DXT_D,32,LEU
Positive,1DXT_D,33,LEU
Positive,1DXT_D,35,VAL
Positive,1DXT_D,36,TYR
Positive,1DXT_D,37,PRO
Positive,1DXT_D,38,TRP
Positive,1DXT_D,39,THR
Positive,1DXT_D,40,GLN
Positive,1DXT_D,43,PHE
Positive,1DXT_D,46,PHE
Positive,1DXT_D,55,VAL
Positive,1DXT_D,56,MET
Positive,1DXT_D,58,ASN
Positive,1DXT_D,61,VAL
Positive,1DXT_D,62,LYS
Positive,1DXT_D,63,ALA
Positive,1DXT_D,64,HIS
Positive,1DXT_D,67,LYS
Positive,1DXT_D,68,VAL
Positive,1DXT_D,69,LEU
Positive,1DXT_D,71,ALA
Positive,1DXT_D,72,PHE
Positive,1DXT_D,74,ASP
Positive,1DXT_D,75,GLY
Positive,1DXT_D,76,LEU
Positive,1DXT_D,82,LEU
Positive,1DXT_D,83,LYS
Positive,1DXT_D,87,ALA
Positive,1DXT_D,89,LEU
Positive,1DXT_D,90,SER
Positive,1DXT_D,91,GLU
Positive,1DXT_D,92,LEU
Positive,1DXT_D,93,HIS
Positive,1DXT_D,94,CYS
Positive,1DXT_D,95,ASP
Positive,1DXT_D,97,LEU
Positive,1DXT_D,98,HIS
Positive,1DXT_D,99,VAL
Positive,1DXT_D,100,ASP
Positive,1DXT_D,101,PRO
Positive,1DXT_D,102,GLU
Positive,1DXT_D,103,ASN
Positive,1DXT_D,104,PHE
Positive,1DXT_D,108,GLY
Positive,1DXT_D,109,ASN
Positive,1DXT_D,110,VAL
Positive,1DXT_D,112,VAL
Positive,1DXT_D,115,LEU
Positive,1DXT_D,116,ALA
Positive,1DXT_D,118,HIS
Positive,1DXT_D,124,THR
Positive,1DXT_D,125,PRO
Positive,1DXT_D,127,VAL
Positive,1DXT_D,128,GLN
Positive,1DXT_D,129,ALA
Positive,1DXT_D,130,ALA
Positive,1DXT_D,131,TYR
Positive,1DXT_D,132,GLN
Positive,1DXT_D,133,LYS
Positive,1DXT_D,135,VAL
Positive,1DXT_D,136,ALA
Positive,1DXT_D,137,GLY
Positive,1DXT_D,139,ALA
Positive,1DXT_D,141,ALA
Positive,1DXT_D,142,LEU
Positive,1DXT_D,143,ALA
Positive,1DXT_D,144,HIS
Positive,1DXT_D,145,LYS
Positive,1DXT_D,146,TYR
Positive,1DXT_D,147,HIS
