Negative,1FDH_H,104,LYS
Negative,1FDH_H,135,THR
Negative,1FDH_H,18,VAL
Negative,1FDH_H,75,ILE
Negative,1FDH_H,117,HIS
Positive,1FDH_H,38,THR
Positive,1FDH_H,41,PHE
Positive,1FDH_H,63,HIS
Positive,1FDH_H,67,VAL
Positive,1FDH_H,92,HIS
Positive,1FDH_H,130,TRP
Positive,1FDH_H,146,HIS
