Positive,1FSU_A,65,SER
Positive,1FSU_A,116,PRO
Positive,1FSU_A,117,CYS
Positive,1FSU_A,137,GLY
Positive,1FSU_A,144,GLY
Positive,1FSU_A,152,ARG
Positive,1FSU_A,160,ARG
Positive,1FSU_A,302,GLY
Positive,1FSU_A,312,TRP
Positive,1FSU_A,315,ARG
Positive,1FSU_A,321,LEU
Positive,1FSU_A,521,CYS
