Negative,1HDR_A,51,ILE
Negative,1HDR_A,222,SER
Negative,1HDR_A,235,ARG
Positive,1HDR_A,13,LEU
Positive,1HDR_A,16,GLY
Positive,1HDR_A,17,GLY
Positive,1HDR_A,22,GLY
Positive,1HDR_A,65,GLN
Positive,1HDR_A,157,HIS
