Negative,1HP7_A,81,ASN
Negative,1HP7_A,121,SER
Negative,1HP7_A,141,GLU
Negative,1HP7_A,212,GLN
Negative,1HP7_A,233,LYS
Negative,1HP7_A,301,SER
Positive,1HP7_A,67,GLY
Positive,1HP7_A,68,THR
Positive,1HP7_A,85,THR
Positive,1HP7_A,358,MET
