Negative,1I0Z_A,18,VAL
Negative,1I0Z_A,236,GLU
Negative,1I0Z_A,45,ALA
Negative,1I0Z_A,325,ASP
Negative,1I0Z_A,180,ILE
Negative,1I0Z_A,294,ILE
Negative,1I0Z_A,10,PRO
Negative,1I0Z_A,72,LEU
Negative,1I0Z_A,175,ALA
Negative,1I0Z_A,235,VAL
Negative,1I0Z_A,130,ASP
Positive,1I0Z_A,106,ARG
Positive,1I0Z_A,171,ARG
