Negative,1JIQ_C,152,VAL
Negative,1JIQ_C,424,ILE
Negative,1JIQ_C,33,ASN
Negative,1JIQ_C,177,GLY
Negative,1JIQ_C,443,GLU
Positive,1JIQ_C,5,THR
Positive,1JIQ_C,20,HIS
Positive,1JIQ_C,75,ARG
Positive,1JIQ_C,101,VAL
Positive,1JIQ_C,195,THR
Positive,1JIQ_C,224,THR
Positive,1JIQ_C,339,LEU
Positive,1JIQ_C,343,GLN
Positive,1JIQ_C,347,ARG
Positive,1JIQ_C,375,THR
Positive,1JIQ_C,389,HIS
Positive,1JIQ_C,517,LEU
Positive,1JIQ_C,539,ASP
