Positive,1JR2_B,3,VAL
Positive,1JR2_B,47,SER
Positive,1JR2_B,53,PRO
Positive,1JR2_B,73,CYS
Positive,1JR2_B,104,ALA
Positive,1JR2_B,129,ILE
Positive,1JR2_B,188,GLY
Positive,1JR2_B,212,SER
Positive,1JR2_B,228,THR
