Positive,1KA6_A,7,TYR
Positive,1KA6_A,16,GLY
Positive,1KA6_A,28,SER
Positive,1KA6_A,31,LEU
Positive,1KA6_A,42,CYS
Positive,1KA6_A,53,THR
Positive,1KA6_A,54,TYR
Positive,1KA6_A,55,ARG
Positive,1KA6_A,57,SER
Positive,1KA6_A,68,THR
Positive,1KA6_A,84,ILE
Positive,1KA6_A,87,PHE
Positive,1KA6_A,99,GLN
Positive,1KA6_A,101,PRO
Positive,1KA6_A,102,VAL
