Positive,1N2L_A,29,ASP
Positive,1N2L_A,30,ASP
Positive,1N2L_A,32,GLY
Positive,1N2L_A,68,LEU
Positive,1N2L_A,82,PRO
Positive,1N2L_A,84,ARG
Positive,1N2L_A,86,GLY
Positive,1N2L_A,94,PRO
Positive,1N2L_A,96,SER
Positive,1N2L_A,99,GLY
Positive,1N2L_A,119,GLY
Positive,1N2L_A,122,GLY
Positive,1N2L_A,136,PRO
Positive,1N2L_A,143,ARG
Positive,1N2L_A,148,PRO
Positive,1N2L_A,153,GLN
Positive,1N2L_A,155,PRO
Positive,1N2L_A,172,CYS
Positive,1N2L_A,181,LEU
Positive,1N2L_A,190,GLN
Positive,1N2L_A,191,PRO
Positive,1N2L_A,201,TYR
Positive,1N2L_A,212,ALA
Positive,1N2L_A,217,ARG
Positive,1N2L_A,219,PHE
Positive,1N2L_A,227,HIS
Positive,1N2L_A,244,ARG
Positive,1N2L_A,250,SER
Positive,1N2L_A,253,GLU
Positive,1N2L_A,255,ASP
Positive,1N2L_A,274,THR
Positive,1N2L_A,282,ASN
Positive,1N2L_A,286,THR
Positive,1N2L_A,288,ARG
Positive,1N2L_A,293,GLY
Positive,1N2L_A,294,CYS
Positive,1N2L_A,295,SER
Positive,1N2L_A,298,LEU
Positive,1N2L_A,302,LYS
Positive,1N2L_A,306,TYR
Positive,1N2L_A,308,GLY
Positive,1N2L_A,309,GLY
Positive,1N2L_A,311,ARG
Positive,1N2L_A,312,GLU
Positive,1N2L_A,314,ALA
Positive,1N2L_A,325,GLY
Positive,1N2L_A,327,THR
Positive,1N2L_A,335,ASP
Positive,1N2L_A,370,ARG
Positive,1N2L_A,376,TYR
Positive,1N2L_A,377,PRO
Positive,1N2L_A,381,ASP
Positive,1N2L_A,382,GLU
Positive,1N2L_A,390,ARG
Positive,1N2L_A,397,HIS
Positive,1N2L_A,408,THR
Positive,1N2L_A,425,PRO
Positive,1N2L_A,428,LEU
Positive,1N2L_A,429,TYR
Positive,1N2L_A,469,ALA
Positive,1N2L_A,489,CYS
