Negative,1OTH_A,135,ALA
Negative,1OTH_A,160,ILE
Negative,1OTH_A,217,ALA
Negative,1OTH_A,229,VAL
Negative,1OTH_A,245,LEU
Negative,1OTH_A,296,SER
Negative,1OTH_A,149,ASP
Negative,1OTH_A,297,ASP
Negative,1OTH_A,56,MET
Negative,1OTH_A,153,LYS
Negative,1OTH_A,320,ARG
Positive,1OTH_A,56,MET
Positive,1OTH_A,125,THR
Positive,1OTH_A,39,GLY
Positive,1OTH_A,40,ARG
Positive,1OTH_A,47,ASN
Positive,1OTH_A,50,GLY
Positive,1OTH_A,55,TYR
Positive,1OTH_A,63,LEU
Positive,1OTH_A,83,GLY
Positive,1OTH_A,88,LYS
Positive,1OTH_A,93,THR
Positive,1OTH_A,100,GLY
Positive,1OTH_A,117,HIS
Positive,1OTH_A,126,ASP
Positive,1OTH_A,129,ARG
Positive,1OTH_A,140,ALA
Positive,1OTH_A,141,ARG
Positive,1OTH_A,168,HIS
Positive,1OTH_A,172,ILE
Positive,1OTH_A,176,TYR
Positive,1OTH_A,178,THR
Positive,1OTH_A,181,GLU
Positive,1OTH_A,183,TYR
Positive,1OTH_A,188,GLY
Positive,1OTH_A,192,SER
Positive,1OTH_A,195,GLY
Positive,1OTH_A,196,ASP
Positive,1OTH_A,201,LEU
Positive,1OTH_A,206,MET
Positive,1OTH_A,207,SER
Positive,1OTH_A,208,ALA
Positive,1OTH_A,209,ALA
Positive,1OTH_A,213,MET
Positive,1OTH_A,214,HIS
Positive,1OTH_A,220,PRO
Positive,1OTH_A,225,PRO
Positive,1OTH_A,242,THR
Positive,1OTH_A,244,LEU
Positive,1OTH_A,247,THR
Positive,1OTH_A,264,THR
Positive,1OTH_A,268,MET
Positive,1OTH_A,269,GLY
Positive,1OTH_A,277,ARG
Positive,1OTH_A,302,HIS
Positive,1OTH_A,303,CYS
Positive,1OTH_A,336,ALA
Positive,1OTH_A,337,VAL
Positive,1OTH_A,339,VAL
Positive,1OTH_A,340,SER
Positive,1OTH_A,343,THR
Positive,1OTH_A,345,TYR
Positive,1OTH_A,354,PHE
