Positive,1PU0_F,4,ALA
Positive,1PU0_F,16,GLY
Positive,1PU0_F,43,HIS
Positive,1PU0_F,45,PHE
Positive,1PU0_F,54,THR
Positive,1PU0_F,80,HIS
Positive,1PU0_F,85,GLY
Positive,1PU0_F,93,GLY
Positive,1PU0_F,97,VAL
Positive,1PU0_F,113,ILE
Positive,1PU0_F,134,SER
Positive,1PU0_F,151,ILE
