Positive,1QKI_F,32,HIS
Positive,1QKI_F,44,ALA
Positive,1QKI_F,48,ILE
Positive,1QKI_F,58,ASP
Positive,1QKI_F,68,VAL
Positive,1QKI_F,70,TYR
Positive,1QKI_F,75,LEU
Positive,1QKI_F,81,ARG
Positive,1QKI_F,106,SER
Positive,1QKI_F,126,ASN
Positive,1QKI_F,128,LEU
Positive,1QKI_F,156,GLU
Positive,1QKI_F,163,GLY
Positive,1QKI_F,165,ASN
Positive,1QKI_F,166,ARG
Positive,1QKI_F,176,ASP
Positive,1QKI_F,181,ASP
Positive,1QKI_F,182,ARG
Positive,1QKI_F,188,SER
Positive,1QKI_F,198,ARG
Positive,1QKI_F,212,MET
Positive,1QKI_F,213,VAL
Positive,1QKI_F,216,PHE
Positive,1QKI_F,227,ARG
Positive,1QKI_F,257,ARG
Positive,1QKI_F,274,GLU
Positive,1QKI_F,278,SER
Positive,1QKI_F,279,THR
Positive,1QKI_F,282,ASP
Positive,1QKI_F,285,ARG
Positive,1QKI_F,291,VAL
Positive,1QKI_F,317,GLU
Positive,1QKI_F,323,LEU
Positive,1QKI_F,335,ALA
Positive,1QKI_F,353,PRO
Positive,1QKI_F,363,ASN
Positive,1QKI_F,385,CYS
Positive,1QKI_F,386,LYS
Positive,1QKI_F,387,ARG
Positive,1QKI_F,393,ARG
Positive,1QKI_F,394,VAL
Positive,1QKI_F,396,PRO
Positive,1QKI_F,398,GLU
Positive,1QKI_F,410,GLY
Positive,1QKI_F,416,GLU
Positive,1QKI_F,439,ARG
Positive,1QKI_F,440,LEU
Positive,1QKI_F,447,GLY
Positive,1QKI_F,449,GLN
Positive,1QKI_F,454,ARG
Positive,1QKI_F,463,ARG
Positive,1QKI_F,488,GLY
