Negative,1QO5_P,332,MET
Negative,1QO5_P,9,GLN
Negative,1QO5_P,21,SER
Negative,1QO5_P,67,SER
Negative,1QO5_P,318,ALA
Negative,1QO5_P,360,CYS
Negative,1QO5_P,70,ASN
Negative,1QO5_P,96,ILE
Negative,1QO5_P,205,THR
Negative,1QO5_P,293,LYS
Negative,1QO5_P,352,SER
Negative,1QO5_P,233,VAL
Positive,1QO5_P,73,ILE
Positive,1QO5_P,134,CYS
Positive,1QO5_P,147,TRP
Positive,1QO5_P,149,ALA
Positive,1QO5_P,174,ALA
Positive,1QO5_P,221,VAL
Positive,1QO5_P,228,LEU
Positive,1QO5_P,256,LEU
Positive,1QO5_P,303,ARG
Positive,1QO5_P,334,ASN
Positive,1QO5_P,337,ALA
