Negative,1R3Q_A,68,LEU
Negative,1R3Q_A,132,GLY
Negative,1R3Q_A,230,ASN
Positive,1R3Q_A,25,GLY
Positive,1R3Q_A,80,ALA
Positive,1R3Q_A,134,VAL
Positive,1R3Q_A,144,ARG
Positive,1R3Q_A,156,GLY
Positive,1R3Q_A,165,MET
Positive,1R3Q_A,167,GLU
Positive,1R3Q_A,168,GLY
Positive,1R3Q_A,193,ARG
Positive,1R3Q_A,218,GLU
Positive,1R3Q_A,232,PHE
Positive,1R3Q_A,253,LEU
Positive,1R3Q_A,260,ILE
