Negative,1SHR_B,10,ALA
Negative,1SHR_B,52,ASP
Negative,1SHR_B,116,ARG
Negative,1SHR_B,22,ALA
Negative,1SHR_B,50,SER
Positive,1SHR_B,4,THR
Positive,1SHR_B,98,VAL
Positive,1SHR_B,99,ASP
Positive,1SHR_B,121,GLU
