Negative,1TTA_B,34,ARG
Negative,1TTA_B,124,ASN
Negative,1TTA_B,26,ILE
Negative,1TTA_B,96,THR
Positive,1TTA_B,10,CYS
Positive,1TTA_B,18,ASP
Positive,1TTA_B,20,VAL
Positive,1TTA_B,24,PRO
Positive,1TTA_B,28,VAL
Positive,1TTA_B,30,VAL
Positive,1TTA_B,33,PHE
Positive,1TTA_B,35,LYS
Positive,1TTA_B,36,ALA
Positive,1TTA_B,42,GLU
Positive,1TTA_B,45,ALA
Positive,1TTA_B,47,GLY
Positive,1TTA_B,49,THR
Positive,1TTA_B,50,SER
Positive,1TTA_B,52,SER
Positive,1TTA_B,54,GLU
Positive,1TTA_B,55,LEU
Positive,1TTA_B,58,LEU
Positive,1TTA_B,59,THR
Positive,1TTA_B,60,THR
Positive,1TTA_B,61,GLU
Positive,1TTA_B,64,PHE
Positive,1TTA_B,68,ILE
Positive,1TTA_B,69,TYR
Positive,1TTA_B,70,LYS
Positive,1TTA_B,71,VAL
Positive,1TTA_B,73,ILE
Positive,1TTA_B,77,SER
Positive,1TTA_B,84,ILE
Positive,1TTA_B,89,GLU
Positive,1TTA_B,91,ALA
Positive,1TTA_B,97,ALA
Positive,1TTA_B,107,ILE
Positive,1TTA_B,109,ALA
Positive,1TTA_B,114,TYR
Positive,1TTA_B,116,TYR
