Negative,1UMK_A,43,PRO
Negative,1UMK_A,96,ILE
Negative,1UMK_A,167,ILE
Negative,1UMK_A,227,LYS
Negative,1UMK_A,289,HIS
Negative,1UMK_A,299,VAL
Positive,1UMK_A,57,ARG
Positive,1UMK_A,72,LEU
Positive,1UMK_A,105,VAL
Positive,1UMK_A,127,SER
Positive,1UMK_A,178,ALA
Positive,1UMK_A,203,CYS
Positive,1UMK_A,291,GLY
