Negative,1YVL_B,1040,LYS
Negative,1YVL_B,1162,SER
Negative,1YVL_B,1200,LYS
Negative,1YVL_B,1300,VAL
Negative,1YVL_B,1369,ASN
Negative,1YVL_B,1496,ALA
Negative,1YVL_B,1532,SER
Negative,1YVL_B,1579,MET
Negative,1YVL_B,1627,ASP
Positive,1YVL_B,1165,ASP
Positive,1YVL_B,1274,ARG
Positive,1YVL_B,1320,GLU
Positive,1YVL_B,1463,GLN
