Negative,1Z7Z_I,18,LEU
Negative,1Z7Z_I,49,ARG
Negative,1Z7Z_I,149,ARG
Negative,1Z7Z_I,180,TYR
Negative,1Z7Z_I,272,GLN
Negative,1Z7Z_I,395,TRP
Negative,1Z7Z_I,262,THR
Negative,1Z7Z_I,128,LYS
Negative,1Z7Z_I,158,SER
Negative,1Z7Z_I,269,ASN
