Negative,1Z8D_A,181,ASP
Negative,1Z8D_A,417,ALA
Negative,1Z8D_A,623,VAL
Negative,1Z8D_A,653,ALA
Negative,1Z8D_A,205,HIS
Negative,1Z8D_A,359,MET
Negative,1Z8D_A,370,ARG
Negative,1Z8D_A,524,PHE
Negative,1Z8D_A,592,ARG
Negative,1Z8D_A,621,ARG
Negative,1Z8D_A,741,VAL
Negative,1Z8D_A,781,ILE
Negative,1Z8D_A,8,GLU
Negative,1Z8D_A,318,CYS
Negative,1Z8D_A,511,PHE
Negative,1Z8D_A,583,VAL
Negative,1Z8D_A,603,VAL
Negative,1Z8D_A,789,ALA
Negative,1Z8D_A,57,HIS
Negative,1Z8D_A,319,ARG
Negative,1Z8D_A,362,ASP
Negative,1Z8D_A,513,SER
Negative,1Z8D_A,551,ARG
Negative,1Z8D_A,743,GLU
Negative,1Z8D_A,834,LEU
Negative,1Z8D_A,65,GLY
Negative,1Z8D_A,89,PHE
Negative,1Z8D_A,350,MET
Negative,1Z8D_A,640,LEU
Negative,1Z8D_A,765,LEU
Positive,1Z8D_A,291,LEU
