Negative,2AMY_A,84,ARG
Negative,2AMY_A,243,LEU
Positive,2AMY_A,20,PRO
Positive,2AMY_A,37,GLN
Positive,2AMY_A,117,GLY
Positive,2AMY_A,119,PHE
Positive,2AMY_A,141,ARG
Positive,2AMY_A,176,GLY
Positive,2AMY_A,177,GLN
Positive,2AMY_A,188,ASP
Positive,2AMY_A,192,CYS
Positive,2AMY_A,223,ASP
Positive,2AMY_A,237,THR
