Negative,2ANT_I,204,SER
Positive,2ANT_I,7,ILE
Positive,2ANT_I,24,ARG
Positive,2ANT_I,47,ARG
Positive,2ANT_I,57,ARG
Positive,2ANT_I,58,PHE
Positive,2ANT_I,63,TYR
Positive,2ANT_I,66,LEU
Positive,2ANT_I,80,PRO
Positive,2ANT_I,89,MET
Positive,2ANT_I,95,CYS
Positive,2ANT_I,99,LEU
Positive,2ANT_I,101,GLN
Positive,2ANT_I,114,LYS
Positive,2ANT_I,116,SER
Positive,2ANT_I,118,GLN
Positive,2ANT_I,120,HIS
Positive,2ANT_I,126,LEU
Positive,2ANT_I,128,CYS
Positive,2ANT_I,129,ARG
Positive,2ANT_I,146,LEU
Positive,2ANT_I,147,PHE
Positive,2ANT_I,166,TYR
Positive,2ANT_I,182,SER
Positive,2ANT_I,187,ASN
Positive,2ANT_I,191,SER
Positive,2ANT_I,211,THR
Positive,2ANT_I,219,ILE
Positive,2ANT_I,225,TRP
Positive,2ANT_I,237,GLU
Positive,2ANT_I,251,MET
Positive,2ANT_I,270,LEU
Positive,2ANT_I,284,ILE
Positive,2ANT_I,302,GLU
Positive,2ANT_I,349,SER
Positive,2ANT_I,365,SER
Positive,2ANT_I,366,ASP
Positive,2ANT_I,380,SER
Positive,2ANT_I,384,ALA
Positive,2ANT_I,387,ALA
Positive,2ANT_I,392,GLY
Positive,2ANT_I,393,ARG
Positive,2ANT_I,394,SER
Positive,2ANT_I,402,PHE
Positive,2ANT_I,404,ALA
Positive,2ANT_I,405,ASN
Positive,2ANT_I,406,ARG
Positive,2ANT_I,407,PRO
Positive,2ANT_I,409,LEU
Positive,2ANT_I,421,ILE
Positive,2ANT_I,424,GLY
Positive,2ANT_I,425,ARG
Positive,2ANT_I,427,ALA
Positive,2ANT_I,429,PRO
Positive,2ANT_I,430,CYS
