Negative,2CW6_A,192,PHE
Negative,2CW6_A,32,ARG
Negative,2CW6_A,86,GLY
Negative,2CW6_A,102,ASN
Negative,2CW6_A,139,ILE
Negative,2CW6_A,227,LEU
Positive,2CW6_A,192,PHE
Positive,2CW6_A,37,GLU
Positive,2CW6_A,41,ARG
Positive,2CW6_A,42,ASP
Positive,2CW6_A,142,SER
Positive,2CW6_A,174,CYS
Positive,2CW6_A,200,ILE
Positive,2CW6_A,203,GLY
Positive,2CW6_A,233,HIS
