Negative,2GJX_D,334,GLU
Positive,2GJX_D,25,PRO
Positive,2GJX_D,39,LEU
Positive,2GJX_D,127,LEU
Positive,2GJX_D,166,ARG
Positive,2GJX_D,170,ARG
Positive,2GJX_D,178,ARG
Positive,2GJX_D,192,VAL
Positive,2GJX_D,204,HIS
Positive,2GJX_D,210,SER
Positive,2GJX_D,211,PHE
Positive,2GJX_D,250,GLY
Positive,2GJX_D,258,ASP
Positive,2GJX_D,269,GLY
Positive,2GJX_D,279,SER
Positive,2GJX_D,301,MET
Positive,2GJX_D,420,TRP
Positive,2GJX_D,454,GLY
Positive,2GJX_D,455,GLY
Positive,2GJX_D,458,CYS
Positive,2GJX_D,474,TRP
Positive,2GJX_D,482,GLU
Positive,2GJX_D,484,LEU
Positive,2GJX_D,485,TRP
Positive,2GJX_D,499,ARG
Positive,2GJX_D,504,ARG
