Positive,2HZY_A,16,ASN
Positive,2HZY_A,62,PHE
Positive,2HZY_A,134,ALA
Positive,2HZY_A,193,CYS
Positive,2HZY_A,233,ASP
Positive,2HZY_A,234,TRP
Positive,2HZY_A,279,GLN
Positive,2HZY_A,341,ARG
Positive,2HZY_A,342,PRO
Positive,2HZY_A,381,ARG
Positive,2HZY_A,405,PHE
