Negative,2IB8_D,64,ALA
Negative,2IB8_D,104,THR
Negative,2IB8_D,209,ASN
Negative,2IB8_D,299,ASP
Negative,2IB8_D,333,ALA
Positive,2IB8_D,333,ALA
Positive,2IB8_D,158,ASN
Positive,2IB8_D,183,GLY
Positive,2IB8_D,301,ALA
Positive,2IB8_D,380,ALA
