Negative,2L7B_A,5,ALA
Negative,2L7B_A,61,ARG
Negative,2L7B_A,174,LEU
Negative,2L7B_A,201,GLN
Negative,2L7B_A,116,VAL
Negative,2L7B_A,8,THR
Negative,2L7B_A,75,LYS
Negative,2L7B_A,223,SER
Positive,2L7B_A,25,ARG
Positive,2L7B_A,3,GLU
Positive,2L7B_A,13,GLU
Positive,2L7B_A,84,PRO
Positive,2L7B_A,112,CYS
Positive,2L7B_A,134,ARG
Positive,2L7B_A,136,ARG
Positive,2L7B_A,142,ARG
Positive,2L7B_A,145,ARG
Positive,2L7B_A,146,LYS
Positive,2L7B_A,158,ARG
Positive,2L7B_A,252,LEU
