Negative,2MSE_B,132,ASP
Negative,2MSE_B,37,GLU
Negative,2MSE_B,100,ILE
Negative,2MSE_B,175,LYS
Negative,2MSE_B,137,TYR
Negative,2MSE_B,119,ASP
Negative,2MSE_B,95,HIS
Positive,2MSE_B,5,LYS
Positive,2MSE_B,14,VAL
Positive,2MSE_B,22,GLN
Positive,2MSE_B,34,PRO
Positive,2MSE_B,58,THR
Positive,2MSE_B,60,GLY
