Negative,2NZ2_A,66,ARG
Negative,2NZ2_A,131,SER
Negative,2NZ2_A,222,ILE
Negative,2NZ2_A,249,GLU
Negative,2NZ2_A,354,LEU
Negative,2NZ2_A,101,LYS
Negative,2NZ2_A,238,VAL
Negative,2NZ2_A,126,VAL
Negative,2NZ2_A,171,ILE
Negative,2NZ2_A,247,SER
Negative,2NZ2_A,407,SER
Positive,2NZ2_A,127,ARG
Positive,2NZ2_A,265,ARG
Positive,2NZ2_A,347,GLY
