Negative,2OBD_A,8,GLU
Negative,2OBD_A,33,THR
Negative,2OBD_A,42,ASP
Negative,2OBD_A,106,TRP
Negative,2OBD_A,189,VAL
Negative,2OBD_A,235,HIS
Negative,2OBD_A,268,ARG
Negative,2OBD_A,368,VAL
Negative,2OBD_A,427,VAL
Positive,2OBD_A,151,LEU
Positive,2OBD_A,282,ARG
