Negative,2PLA_A,78,MET
Negative,2PLA_A,26,ASN
Negative,2PLA_A,35,ALA
Negative,2PLA_A,113,LYS
Negative,2PLA_A,156,ASN
Negative,2PLA_A,242,ARG
Negative,2PLA_A,313,LYS
Positive,2PLA_A,83,GLU
Positive,2PLA_A,124,ILE
Positive,2PLA_A,273,ARG
Positive,2PLA_A,280,ALA
