Negative,2UU7_I,191,ALA
Negative,2UU7_I,329,VAL
Negative,2UU7_I,19,SER
Negative,2UU7_I,128,HIS
Negative,2UU7_I,33,ILE
Negative,2UU7_I,80,VAL
Negative,2UU7_I,116,THR
Negative,2UU7_I,269,TYR
Positive,2UU7_I,324,ARG
Positive,2UU7_I,341,ARG
