Negative,2V3E_A,26,PHE
Negative,2V3E_A,53,MET
Negative,2V3E_A,329,ARG
Positive,2V3E_A,16,CYS
Positive,2V3E_A,24,ASP
Positive,2V3E_A,107,SER
Positive,2V3E_A,119,ILE
Positive,2V3E_A,120,ARG
Positive,2V3E_A,122,PRO
Positive,2V3E_A,123,MET
Positive,2V3E_A,127,ASP
Positive,2V3E_A,157,LYS
Positive,2V3E_A,161,ILE
Positive,2V3E_A,174,LEU
Positive,2V3E_A,178,PRO
Positive,2V3E_A,182,PRO
Positive,2V3E_A,184,TRP
Positive,2V3E_A,185,LEU
Positive,2V3E_A,188,ASN
Positive,2V3E_A,190,ALA
Positive,2V3E_A,191,VAL
Positive,2V3E_A,193,GLY
Positive,2V3E_A,195,GLY
Positive,2V3E_A,196,SER
Positive,2V3E_A,198,LYS
Positive,2V3E_A,202,GLY
Positive,2V3E_A,213,PHE
Positive,2V3E_A,251,PHE
Positive,2V3E_A,257,ARG
Positive,2V3E_A,259,PHE
Positive,2V3E_A,264,LEU
Positive,2V3E_A,271,SER
Positive,2V3E_A,285,ARG
Positive,2V3E_A,304,TYR
Positive,2V3E_A,323,THR
Positive,2V3E_A,325,GLY
Positive,2V3E_A,342,CYS
Positive,2V3E_A,349,GLU
Positive,2V3E_A,353,ARG
Positive,2V3E_A,363,TYR
Positive,2V3E_A,371,LEU
Positive,2V3E_A,380,ASP
Positive,2V3E_A,382,ASN
Positive,2V3E_A,389,GLY
Positive,2V3E_A,390,GLY
Positive,2V3E_A,392,ASN
Positive,2V3E_A,394,VAL
Positive,2V3E_A,397,PHE
Positive,2V3E_A,399,ASP
Positive,2V3E_A,402,ILE
Positive,2V3E_A,409,ASP
Positive,2V3E_A,415,PRO
Positive,2V3E_A,416,MET
Positive,2V3E_A,425,LYS
Positive,2V3E_A,444,LEU
Positive,2V3E_A,456,ALA
Positive,2V3E_A,462,ASN
Positive,2V3E_A,463,ARG
