Negative,2VAF_A,1047,THR
Negative,2VAF_A,1026,VAL
Negative,2VAF_A,1043,SER
Negative,2VAF_A,1131,SER
Negative,2VAF_A,1237,GLU
Negative,2VAF_A,1285,LEU
Negative,2VAF_A,1019,SER
Negative,2VAF_A,1040,PRO
Negative,2VAF_A,1156,ASP
Negative,2VAF_A,1257,LYS
Positive,2VAF_A,1014,ARG
Positive,2VAF_A,1148,LEU
