Negative,2VD6_D,70,GLU
Negative,2VD6_D,429,VAL
Positive,2VD6_D,26,MET
Positive,2VD6_D,72,ILE
Positive,2VD6_D,114,TYR
Positive,2VD6_D,141,ARG
Positive,2VD6_D,194,ARG
Positive,2VD6_D,268,ASP
Positive,2VD6_D,311,LEU
Positive,2VD6_D,318,PRO
Positive,2VD6_D,364,VAL
Positive,2VD6_D,374,ARG
Positive,2VD6_D,395,SER
Positive,2VD6_D,396,ARG
Positive,2VD6_D,426,ARG
Positive,2VD6_D,438,SER
Positive,2VD6_D,447,SER
Positive,2VD6_D,452,ARG
