Negative,2W8Q_A,111,ARG
Negative,2W8Q_A,345,GLN
Negative,2W8Q_A,406,VAL
Positive,2W8Q_A,93,CYS
Positive,2W8Q_A,176,GLY
Positive,2W8Q_A,223,CYS
Positive,2W8Q_A,233,THR
Positive,2W8Q_A,255,ASN
Positive,2W8Q_A,268,GLY
Positive,2W8Q_A,335,ASN
Positive,2W8Q_A,382,PRO
Positive,2W8Q_A,409,GLY
Positive,2W8Q_A,533,GLY
