Negative,2XWB_F,10,GLY
Negative,2XWB_F,292,TYR
Negative,2XWB_F,17,VAL
Negative,2XWB_F,61,LYS
Negative,2XWB_F,259,SER
Negative,2XWB_F,441,TYR
Negative,2XWB_F,519,GLU
Negative,2XWB_F,527,VAL
Negative,2XWB_F,564,GLY
Positive,2XWB_F,261,PHE
Positive,2XWB_F,298,LYS
