Negative,2ZW3_D,16,HIS
Negative,2ZW3_D,98,ARG
Negative,2ZW3_D,138,SER
Negative,2ZW3_D,217,TYR
Positive,2ZW3_D,46,ASP
Positive,2ZW3_D,59,GLY
Positive,2ZW3_D,66,ASP
Positive,2ZW3_D,73,HIS
Positive,2ZW3_D,75,ARG
Positive,2ZW3_D,84,VAL
Positive,2ZW3_D,168,LYS
