Negative,3B5U_G,278,THR
Negative,3B5U_G,165,ILE
Negative,3B5U_G,228,ALA
Negative,3B5U_G,217,CYS
Negative,3B5U_G,141,SER
Negative,3B5U_G,194,THR
Negative,3B5U_G,160,THR
Negative,3B5U_G,261,LEU
Negative,3B5U_G,274,ILE
Negative,3B5U_G,8,LEU
Negative,3B5U_G,178,LEU
Negative,3B5U_G,190,MET
Negative,3B5U_G,234,SER
Negative,3B5U_G,353,GLN
Negative,3B5U_G,22,ALA
Negative,3B5U_G,327,ILE
Negative,3B5U_G,10,CYS
Negative,3B5U_G,129,VAL
Negative,3B5U_G,162,ASN
Negative,3B5U_G,260,THR
Negative,3B5U_G,279,TYR
Negative,3B5U_G,297,ASN
Negative,3B5U_G,230,ALA
Negative,3B5U_G,304,THR
Positive,3B5U_G,123,MET
