Negative,3BIC_A,320,ALA
Negative,3BIC_A,32,LEU
Negative,3BIC_A,79,MET
Negative,3BIC_A,250,ALA
Negative,3BIC_A,433,CYS
Negative,3BIC_A,153,VAL
Negative,3BIC_A,281,LEU
Negative,3BIC_A,337,PHE
Negative,3BIC_A,371,ALA
Negative,3BIC_A,513,ARG
Negative,3BIC_A,535,ALA
Negative,3BIC_A,556,SER
Negative,3BIC_A,569,LEU
Negative,3BIC_A,668,ALA
Positive,3BIC_A,281,LEU
Positive,3BIC_A,535,ALA
Positive,3BIC_A,86,PRO
Positive,3BIC_A,87,GLY
Positive,3BIC_A,93,ARG
Positive,3BIC_A,94,GLY
Positive,3BIC_A,95,PRO
Positive,3BIC_A,105,TRP
Positive,3BIC_A,108,ARG
Positive,3BIC_A,109,GLN
Positive,3BIC_A,137,ALA
Positive,3BIC_A,145,GLY
Positive,3BIC_A,156,ASP
Positive,3BIC_A,158,GLY
Positive,3BIC_A,174,PHE
Positive,3BIC_A,186,MET
Positive,3BIC_A,189,ASN
Positive,3BIC_A,191,ALA
Positive,3BIC_A,197,ALA
Positive,3BIC_A,203,GLY
Positive,3BIC_A,215,GLY
Positive,3BIC_A,218,GLN
Positive,3BIC_A,219,ASN
Positive,3BIC_A,228,ARG
Positive,3BIC_A,230,THR
Positive,3BIC_A,231,TYR
Positive,3BIC_A,262,SER
Positive,3BIC_A,265,HIS
Positive,3BIC_A,291,GLY
Positive,3BIC_A,293,GLN
Positive,3BIC_A,305,LEU
Positive,3BIC_A,306,SER
Positive,3BIC_A,312,GLY
Positive,3BIC_A,316,TYR
Positive,3BIC_A,324,ALA
Positive,3BIC_A,328,LEU
Positive,3BIC_A,347,LEU
Positive,3BIC_A,350,HIS
Positive,3BIC_A,369,ARG
Positive,3BIC_A,370,THR
Positive,3BIC_A,377,ALA
Positive,3BIC_A,383,GLN
Positive,3BIC_A,386,HIS
Positive,3BIC_A,388,ASN
Positive,3BIC_A,426,GLY
Positive,3BIC_A,427,GLY
Positive,3BIC_A,518,LEU
Positive,3BIC_A,560,CYS
Positive,3BIC_A,566,THR
Positive,3BIC_A,573,PHE
Positive,3BIC_A,587,TYR
Positive,3BIC_A,615,PRO
Positive,3BIC_A,616,ARG
Positive,3BIC_A,621,LYS
Positive,3BIC_A,623,GLY
Positive,3BIC_A,626,GLY
Positive,3BIC_A,627,HIS
Positive,3BIC_A,630,GLY
Positive,3BIC_A,633,VAL
Positive,3BIC_A,637,GLY
Positive,3BIC_A,638,PHE
Positive,3BIC_A,640,ASP
Positive,3BIC_A,642,GLY
Positive,3BIC_A,648,GLY
Positive,3BIC_A,669,VAL
Positive,3BIC_A,678,HIS
Positive,3BIC_A,685,LEU
Positive,3BIC_A,694,ARG
Positive,3BIC_A,700,MET
Positive,3BIC_A,703,GLY
Positive,3BIC_A,717,GLY
