Negative,3COG_D,40,PRO
Negative,3COG_D,166,VAL
Negative,3COG_D,179,HIS
Negative,3COG_D,208,TYR
Negative,3COG_D,250,ILE
Negative,3COG_D,303,VAL
Negative,3COG_D,348,ALA
Negative,3COG_D,384,GLU
Positive,3COG_D,67,THR
Positive,3COG_D,240,GLN
