Negative,3EDY_A,97,HIS
Negative,3EDY_A,58,VAL
Negative,3EDY_A,98,THR
Negative,3EDY_A,258,ALA
Negative,3EDY_A,427,THR
Negative,3EDY_A,484,ILE
Negative,3EDY_A,524,GLU
Positive,3EDY_A,77,GLY
Positive,3EDY_A,127,ARG
Positive,3EDY_A,202,PRO
Positive,3EDY_A,206,ARG
Positive,3EDY_A,277,VAL
Positive,3EDY_A,284,GLY
Positive,3EDY_A,286,ASN
Positive,3EDY_A,287,ILE
Positive,3EDY_A,343,GLU
Positive,3EDY_A,365,CYS
Positive,3EDY_A,422,GLN
Positive,3EDY_A,447,ARG
Positive,3EDY_A,475,SER
Positive,3EDY_A,544,PRO
