Negative,3ETG_A,272,ALA
Negative,3ETG_A,30,GLU
Negative,3ETG_A,138,ASP
Negative,3ETG_A,295,LYS
Negative,3ETG_A,366,MET
Negative,3ETG_A,437,GLN
Negative,3ETG_A,452,GLY
Negative,3ETG_A,494,ASN
Negative,3ETG_A,301,ILE
Negative,3ETG_A,62,SER
Negative,3ETG_A,361,LEU
Negative,3ETG_A,242,PHE
Positive,3ETG_A,213,SER
Positive,3ETG_A,217,ARG
Positive,3ETG_A,261,ARG
Positive,3ETG_A,265,ARG
Positive,3ETG_A,450,HIS
