Negative,3EXE_A,267,ASP
Negative,3EXE_A,133,GLY
Negative,3EXE_A,101,SER
Negative,3EXE_A,113,LYS
Negative,3EXE_A,360,VAL
Negative,3EXE_A,117,ALA
Positive,3EXE_A,176,PHE
Positive,3EXE_A,229,ASP
Positive,3EXE_A,273,ARG
Positive,3EXE_A,349,ARG
