Negative,3FCS_A,486,ASN
Negative,3FCS_A,637,ALA
Negative,3FCS_A,697,ALA
Negative,3FCS_A,915,TYR
Negative,3FCS_A,952,TRP
Positive,3FCS_A,55,LEU
Positive,3FCS_A,143,TYR
Positive,3FCS_A,145,PRO
Positive,3FCS_A,183,LEU
Positive,3FCS_A,242,GLY
Positive,3FCS_A,289,PHE
Positive,3FCS_A,298,VAL
Positive,3FCS_A,324,GLU
Positive,3FCS_A,327,ARG
Positive,3FCS_A,374,ILE
Positive,3FCS_A,418,GLY
Positive,3FCS_A,565,ILE
Positive,3FCS_A,674,CYS
Positive,3FCS_A,747,GLN
Positive,3FCS_A,912,PRO
Positive,3FCS_A,951,VAL
