Positive,3HCR_B,571,ILE
Positive,3HCR_B,639,GLN
Positive,3HCR_B,651,SER
Positive,3HCR_B,682,LEU
Positive,3HCR_B,691,TYR
Positive,3HCR_B,692,PRO
Positive,3HCR_B,736,CYS
Positive,3HCR_B,760,PHE
Positive,3HCR_B,767,MET
Positive,3HCR_B,783,THR
Positive,3HCR_B,788,MET
Positive,3HCR_B,834,PRO
Positive,3HCR_B,879,LYS
Positive,3HCR_B,886,HIS
Positive,3HCR_B,906,CYS
Positive,3HCR_B,917,PHE
