Negative,3HHR_A,105,ALA
Negative,3HHR_A,109,ASN
Negative,3HHR_A,173,VAL
Positive,3HHR_A,16,ARG
Positive,3HHR_A,27,THR
Positive,3HHR_A,41,LYS
Positive,3HHR_A,47,ASN
Positive,3HHR_A,53,CYS
Positive,3HHR_A,71,SER
Positive,3HHR_A,77,ARG
Positive,3HHR_A,91,GLN
Positive,3HHR_A,108,SER
Positive,3HHR_A,112,ASP
Positive,3HHR_A,175,THR
Positive,3HHR_A,179,ILE
