Positive,3IAR_A,15,HIS
Positive,3IAR_A,20,GLY
Positive,3IAR_A,74,GLY
Positive,3IAR_A,83,ALA
Positive,3IAR_A,101,ARG
Positive,3IAR_A,129,VAL
Positive,3IAR_A,152,LEU
Positive,3IAR_A,177,VAL
Positive,3IAR_A,179,ALA
Positive,3IAR_A,199,GLN
Positive,3IAR_A,211,ARG
Positive,3IAR_A,216,GLY
Positive,3IAR_A,304,LEU
