Negative,3IDH_A,35,ARG
Negative,3IDH_A,159,ILE
Negative,3IDH_A,218,HIS
Negative,3IDH_A,292,LEU
Negative,3IDH_A,342,THR
Negative,3IDH_A,361,THR
Negative,3IDH_A,46,ARG
Negative,3IDH_A,262,ASP
Negative,3IDH_A,311,ASP
Positive,3IDH_A,70,GLU
Positive,3IDH_A,131,SER
Positive,3IDH_A,188,ALA
Positive,3IDH_A,257,TRP
Positive,3IDH_A,414,LYS
