Positive,3IJE_B,119,ASP
Positive,3IJE_B,124,MET
Positive,3IJE_B,162,SER
Positive,3IJE_B,196,LEU
Positive,3IJE_B,214,ARG
Positive,3IJE_B,304,ILE
Positive,3IJE_B,542,CYS
Positive,3IJE_B,560,CYS
Positive,3IJE_B,579,GLY
