Negative,3J07_I,124,ILE
Negative,3J07_I,40,THR
Negative,3J07_I,152,VAL
Negative,3J07_I,41,SER
Negative,3J07_I,70,LEU
Negative,3J07_I,49,LEU
Negative,3J07_I,68,MET
Negative,3J07_I,55,LEU
Positive,3J07_I,120,ARG
