Positive,3LXB_B,46,HIS
Positive,3LXB_B,66,GLU
Positive,3LXB_B,72,MET
Positive,3LXB_B,93,ASP
Positive,3LXB_B,120,LEU
Positive,3LXB_B,219,ILE
Positive,3LXB_B,296,MET
Positive,3LXB_B,342,ARG
Positive,3LXB_B,356,ARG
Positive,3LXB_B,360,GLY
Positive,3LXB_B,361,GLY
