Negative,3NA1_A,124,ALA
Negative,3NA1_A,191,ALA
Negative,3NA1_A,240,ILE
Negative,3NA1_A,246,TYR
Negative,3NA1_A,322,HIS
Negative,3NA1_A,367,ASP
Positive,3NA1_A,102,LEU
Positive,3NA1_A,150,ALA
Positive,3NA1_A,183,LEU
Positive,3NA1_A,314,ARG
Positive,3NA1_A,320,ALA
Positive,3NA1_A,376,VAL
