Negative,3O9M_B,77,HIS
Negative,3O9M_B,110,LEU
Negative,3O9M_B,202,ALA
Negative,3O9M_B,117,GLY
Positive,3O9M_B,33,TYR
Positive,3O9M_B,37,PRO
Positive,3O9M_B,70,ASP
Positive,3O9M_B,125,LEU
Positive,3O9M_B,170,ASP
Positive,3O9M_B,198,SER
Positive,3O9M_B,201,ALA
Positive,3O9M_B,307,LEU
Positive,3O9M_B,330,LEU
Positive,3O9M_B,471,TRP
Positive,3O9M_B,518,GLN
