Negative,3OAX_A,234,ALA
Negative,3OAX_A,8,ASN
Negative,3OAX_A,13,PHE
Negative,3OAX_A,337,VAL
Negative,3OAX_A,158,ALA
Negative,3OAX_A,333,ALA
Negative,3OAX_A,309,MET
Negative,3OAX_A,281,SER
Negative,3OAX_A,273,PHE
Negative,3OAX_A,46,LEU
Negative,3OAX_A,159,PHE
Positive,3OAX_A,23,PRO
Positive,3OAX_A,150,GLU
Positive,3OAX_A,347,PRO
