Negative,3R9A_C,23,GLN
Negative,3R9A_C,45,MET
Negative,3R9A_C,65,GLN
Negative,3R9A_C,119,ILE
Negative,3R9A_C,188,LEU
Negative,3R9A_C,197,ARG
Negative,3R9A_C,290,GLN
Negative,3R9A_C,354,SER
Negative,3R9A_C,370,ARG
Positive,3R9A_C,82,GLY
Positive,3R9A_C,41,GLY
Positive,3R9A_C,152,PHE
