Negative,3SFD_A,187,GLY
Negative,3SFD_A,48,VAL
Negative,3SFD_A,381,ARG
Negative,3SFD_A,472,SER
Negative,3SFD_A,464,ILE
Negative,3SFD_A,569,GLN
Negative,3SFD_A,120,ARG
Negative,3SFD_A,177,TYR
Negative,3SFD_A,408,ASN
Negative,3SFD_A,503,ASP
Positive,3SFD_A,547,ARG
