Negative,3W3D_A,16,CYS
Negative,3W3D_A,357,SER
Negative,3W3D_A,175,MET
Negative,3W3D_A,277,THR
Negative,3W3D_A,164,ILE
Negative,3W3D_A,216,CYS
Negative,3W3D_A,102,THR
Negative,3W3D_A,224,ASN
Negative,3W3D_A,271,ALA
Negative,3W3D_A,364,ALA
Negative,3W3D_A,18,ALA
Negative,3W3D_A,152,LEU
Negative,3W3D_A,302,THR
Negative,3W3D_A,95,VAL
Negative,3W3D_A,186,ASP
Negative,3W3D_A,205,ARG
Negative,3W3D_A,352,GLN
Negative,3W3D_A,2,GLU
Negative,3W3D_A,15,LEU
Negative,3W3D_A,128,VAL
Negative,3W3D_A,200,VAL
Negative,3W3D_A,266,ILE
Negative,3W3D_A,296,ASN
Negative,3W3D_A,229,ALA
Negative,3W3D_A,303,THR
Positive,3W3D_A,176,ARG
