Negative,3WF0_A,40,SER
Negative,3WF0_A,206,ARG
Negative,3WF0_A,378,THR
Negative,3WF0_A,553,MET
Negative,3WF0_A,623,TRP
Positive,3WF0_A,59,ARG
Positive,3WF0_A,68,ARG
Positive,3WF0_A,83,TYR
Positive,3WF0_A,132,MET
Positive,3WF0_A,151,ASP
Positive,3WF0_A,155,LEU
Positive,3WF0_A,184,GLN
Positive,3WF0_A,190,GLY
Positive,3WF0_A,198,ASP
Positive,3WF0_A,201,ARG
Positive,3WF0_A,239,THR
Positive,3WF0_A,255,GLN
Positive,3WF0_A,270,TYR
Positive,3WF0_A,273,TRP
Positive,3WF0_A,318,ASN
Positive,3WF0_A,332,ASP
Positive,3WF0_A,408,GLN
Positive,3WF0_A,434,SER
Positive,3WF0_A,482,ARG
Positive,3WF0_A,509,TRP
Positive,3WF0_A,554,GLY
Positive,3WF0_A,579,GLY
Positive,3WF0_A,591,TYR
Positive,3WF0_A,597,PRO
