Negative,4A5T_S,140,PRO
Negative,4A5T_S,160,LEU
Negative,4A5T_S,220,ARG
Negative,4A5T_S,279,HIS
Negative,4A5T_S,317,HIS
Negative,4A5T_S,344,ALA
Negative,4A5T_S,399,ASN
Negative,4A5T_S,500,GLU
Negative,4A5T_S,532,LEU
Negative,4A5T_S,645,LYS
Negative,4A5T_S,721,GLN
Positive,4A5T_S,19,LYS
Positive,4A5T_S,216,ARG
Positive,4A5T_S,355,VAL
Positive,4A5T_S,572,SER
Positive,4A5T_S,601,ALA
