Negative,4CCA_A,126,VAL
Negative,4CCA_A,166,THR
Negative,4CCA_A,308,ARG
Negative,4CCA_A,385,SER
Negative,4CCA_A,400,ALA
Negative,4CCA_A,476,THR
Negative,4CCA_A,494,ASN
Negative,4CCA_A,585,LYS
Positive,4CCA_A,292,ARG
Positive,4CCA_A,405,ARG
Positive,4CCA_A,477,PRO
