Negative,4F30_A,398,ASP
Negative,4F30_A,225,ILE
Negative,4F30_A,308,PRO
Negative,4F30_A,396,CYS
Negative,4F30_A,24,SER
Negative,4F30_A,185,ASN
Negative,4F30_A,213,GLN
Negative,4F30_A,284,THR
Negative,4F30_A,297,LYS
Negative,4F30_A,358,ARG
Negative,4F30_A,381,LYS
Negative,4F30_A,446,ARG
Negative,4F30_A,459,VAL
Negative,4F30_A,504,ILE
Negative,4F30_A,520,ILE
Positive,4F30_A,85,ARG
Positive,4F30_A,515,ARG
