Negative,4FDH_K,173,LYS
Negative,4FDH_K,182,GLY
Negative,4FDH_K,188,VAL
Negative,4FDH_K,280,PHE
Positive,4FDH_K,42,PRO
Positive,4FDH_K,133,ASN
Positive,4FDH_K,319,THR
Positive,4FDH_K,181,ARG
Positive,4FDH_K,386,VAL
Positive,4FDH_K,461,LEU
