Positive,4FDJ_A,47,GLY
Positive,4FDJ_A,77,PRO
Positive,4FDJ_A,80,SER
Positive,4FDJ_A,90,ARG
Positive,4FDJ_A,96,GLY
Positive,4FDJ_A,111,GLN
Positive,4FDJ_A,113,ILE
Positive,4FDJ_A,125,PRO
Positive,4FDJ_A,135,SER
Positive,4FDJ_A,139,GLY
Positive,4FDJ_A,141,TRP
Positive,4FDJ_A,151,PRO
Positive,4FDJ_A,155,GLY
Positive,4FDJ_A,156,PHE
Positive,4FDJ_A,166,HIS
Positive,4FDJ_A,179,PRO
Positive,4FDJ_A,185,GLU
Positive,4FDJ_A,230,TRP
Positive,4FDJ_A,257,ALA
Positive,4FDJ_A,284,PHE
Positive,4FDJ_A,287,SER
Positive,4FDJ_A,290,GLY
Positive,4FDJ_A,291,ALA
Positive,4FDJ_A,301,GLY
Positive,4FDJ_A,309,GLY
Positive,4FDJ_A,318,MET
Positive,4FDJ_A,343,MET
Positive,4FDJ_A,344,ASP
Positive,4FDJ_A,346,PHE
Positive,4FDJ_A,351,ALA
Positive,4FDJ_A,376,ARG
Positive,4FDJ_A,386,ARG
Positive,4FDJ_A,391,MET
Positive,4FDJ_A,395,LEU
Positive,4FDJ_A,450,GLU
Positive,4FDJ_A,494,MET
