Positive,4IMA_A,84,ALA
Positive,4IMA_A,89,SER
Positive,4IMA_A,99,SER
Positive,4IMA_A,132,ARG
Positive,4IMA_A,191,GLY
Positive,4IMA_A,257,VAL
Positive,4IMA_A,279,ILE
Positive,4IMA_A,283,ILE
Positive,4IMA_A,300,ASP
Positive,4IMA_A,301,GLY
Positive,4IMA_A,317,LYS
Positive,4IMA_A,328,ARG
Positive,4IMA_A,333,GLY
Positive,4IMA_A,337,VAL
Positive,4IMA_A,353,THR
Positive,4IMA_A,359,ASP
Positive,4IMA_A,362,ASN
Positive,4IMA_A,377,THR
Positive,4IMA_A,390,GLN
Positive,4IMA_A,395,ARG
Positive,4IMA_A,437,ALA
Positive,4IMA_A,448,ARG
Positive,4IMA_A,455,ARG
Positive,4IMA_A,473,ARG
Positive,4IMA_A,479,ARG
Positive,4IMA_A,501,ARG
