Negative,4JEU_A,97,ALA
Negative,4JEU_A,194,GLU
Negative,4JEU_A,240,SER
Negative,4JEU_A,397,ALA
Negative,4JEU_A,451,VAL
Positive,4JEU_A,84,VAL
Positive,4JEU_A,180,CYS
Positive,4JEU_A,443,MET
Positive,4JEU_A,544,GLY
