Negative,4KQE_A,446,SER
Negative,4KQE_A,645,ILE
Negative,4KQE_A,179,VAL
Negative,4KQE_A,223,SER
Negative,4KQE_A,304,SER
Negative,4KQE_A,329,SER
Negative,4KQE_A,450,ILE
Negative,4KQE_A,478,MET
Negative,4KQE_A,519,ASN
Negative,4KQE_A,616,VAL
Positive,4KQE_A,526,GLY
