Negative,4L3V_A,71,ALA
Negative,4L3V_A,133,ASP
Negative,4L3V_A,242,GLN
Negative,4L3V_A,403,THR
Negative,4L3V_A,432,GLY
Positive,4L3V_A,58,ARG
Positive,4L3V_A,85,GLY
Positive,4L3V_A,101,LEU
Positive,4L3V_A,102,LYS
Positive,4L3V_A,109,CYS
Positive,4L3V_A,125,ARG
Positive,4L3V_A,126,MET
Positive,4L3V_A,131,GLU
Positive,4L3V_A,143,ILE
Positive,4L3V_A,144,GLU
Positive,4L3V_A,145,PRO
Positive,4L3V_A,148,GLY
Positive,4L3V_A,152,ILE
Positive,4L3V_A,154,LEU
Positive,4L3V_A,155,ALA
Positive,4L3V_A,165,CYS
Positive,4L3V_A,176,GLU
Positive,4L3V_A,228,ASN
Positive,4L3V_A,231,ALA
Positive,4L3V_A,262,THR
Positive,4L3V_A,275,CYS
Positive,4L3V_A,278,ILE
Positive,4L3V_A,281,ASP
Positive,4L3V_A,288,ALA
Positive,4L3V_A,302,GLU
Positive,4L3V_A,320,VAL
Positive,4L3V_A,321,ASP
Positive,4L3V_A,336,ARG
Positive,4L3V_A,338,LEU
Positive,4L3V_A,347,GLY
Positive,4L3V_A,349,SER
Positive,4L3V_A,353,THR
Positive,4L3V_A,369,ARG
Positive,4L3V_A,376,ASP
Positive,4L3V_A,379,ARG
Positive,4L3V_A,384,LYS
Positive,4L3V_A,439,ARG
Positive,4L3V_A,444,ASP
Positive,4L3V_A,456,LEU
Positive,4L3V_A,491,ARG
Positive,4L3V_A,534,VAL
