Positive,4MIV_B,40,TYR
Positive,4MIV_B,44,ALA
Positive,4MIV_B,66,SER
Positive,4MIV_B,74,ARG
Positive,4MIV_B,79,THR
Positive,4MIV_B,106,SER
Positive,4MIV_B,122,GLY
Positive,4MIV_B,128,PRO
Positive,4MIV_B,146,LEU
Positive,4MIV_B,150,ARG
Positive,4MIV_B,163,LEU
Positive,4MIV_B,179,ASP
Positive,4MIV_B,182,ARG
Positive,4MIV_B,191,GLY
Positive,4MIV_B,206,ARG
Positive,4MIV_B,227,PRO
Positive,4MIV_B,245,ARG
Positive,4MIV_B,298,SER
Positive,4MIV_B,369,GLU
Positive,4MIV_B,433,ARG
