Negative,4MRI_B,242,ILE
Negative,4MRI_B,12,GLN
Negative,4MRI_B,105,SER
Negative,4MRI_B,270,ILE
Positive,4MRI_B,16,ILE
Positive,4MRI_B,27,GLY
Positive,4MRI_B,114,ASP
Positive,4MRI_B,123,GLY
Positive,4MRI_B,152,CYS
Positive,4MRI_B,168,ARG
Positive,4MRI_B,285,GLU
Positive,4MRI_B,305,ALA
