Negative,4O33_A,82,VAL
Negative,4O33_A,114,SER
Negative,4O33_A,257,PHE
Negative,4O33_A,328,THR
Negative,4O33_A,416,ILE
Negative,4O33_A,270,SER
Negative,4O33_A,48,PHE
Negative,4O33_A,78,GLU
Negative,4O33_A,144,ALA
Negative,4O33_A,224,ASN
Negative,4O33_A,273,GLU
Negative,4O33_A,148,ALA
Negative,4O33_A,69,VAL
Negative,4O33_A,137,ASN
Negative,4O33_A,297,THR
Positive,4O33_A,87,LEU
Positive,4O33_A,157,GLY
Positive,4O33_A,163,ASP
Positive,4O33_A,205,ARG
Positive,4O33_A,251,GLU
Positive,4O33_A,265,VAL
Positive,4O33_A,267,ASP
Positive,4O33_A,314,ASP
Positive,4O33_A,315,CYS
