Negative,4OMT_A,186,MET
Negative,4OMT_A,579,TYR
Negative,4OMT_A,64,HIS
Negative,4OMT_A,137,SER
Negative,4OMT_A,363,ASP
Negative,4OMT_A,719,VAL
Negative,4OMT_A,63,ASP
Negative,4OMT_A,103,TYR
Negative,4OMT_A,147,ASP
Negative,4OMT_A,371,LEU
Negative,4OMT_A,400,SER
Negative,4OMT_A,607,ALA
Negative,4OMT_A,154,SER
Negative,4OMT_A,278,ASP
Negative,4OMT_A,327,GLY
Negative,4OMT_A,391,VAL
Negative,4OMT_A,475,LYS
Negative,4OMT_A,496,ILE
Negative,4OMT_A,551,THR
Negative,4OMT_A,728,ASP
Negative,4OMT_A,14,ILE
Negative,4OMT_A,238,ASP
Negative,4OMT_A,401,HIS
Negative,4OMT_A,469,THR
Negative,4OMT_A,8,ALA
Negative,4OMT_A,46,ALA
Negative,4OMT_A,160,GLY
Negative,4OMT_A,488,PHE
Negative,4OMT_A,684,MET
Negative,4OMT_A,43,PHE
Negative,4OMT_A,151,THR
Negative,4OMT_A,412,ALA
Positive,4OMT_A,39,ARG
Positive,4OMT_A,100,ARG
Positive,4OMT_A,209,GLY
Positive,4OMT_A,543,ASP
Positive,4OMT_A,686,TRP
Positive,4OMT_A,696,ARG
