Negative,4PJ1_F,18,GLN
Negative,4PJ1_F,335,LYS
Negative,4PJ1_F,483,ALA
Negative,4PJ1_F,157,GLU
Negative,4PJ1_F,315,PRO
Negative,4PJ1_F,351,ILE
Negative,4PJ1_F,431,THR
Negative,4PJ1_F,471,MET
Negative,4PJ1_F,48,LYS
Negative,4PJ1_F,417,GLY
Negative,4PJ1_F,430,LEU
Negative,4PJ1_F,446,ARG
Negative,4PJ1_F,339,ASP
Negative,4PJ1_F,477,VAL
Positive,4PJ1_F,5,ASP
