Negative,4QGK_A,146,ILE
Negative,4QGK_A,3,LEU
Negative,4QGK_A,54,PHE
Negative,4QGK_A,88,VAL
Negative,4QGK_A,118,THR
Negative,4QGK_A,161,ILE
Negative,4QGK_A,302,PHE
Negative,4QGK_A,457,LYS
Positive,4QGK_A,45,ILE
Positive,4QGK_A,64,VAL
Positive,4QGK_A,106,LEU
Positive,4QGK_A,114,PRO
Positive,4QGK_A,121,PRO
Positive,4QGK_A,184,THR
Positive,4QGK_A,185,GLY
Positive,4QGK_A,214,CYS
Positive,4QGK_A,228,ARG
Positive,4QGK_A,237,CYS
Positive,4QGK_A,279,TYR
Positive,4QGK_A,315,PRO
Positive,4QGK_A,365,SER
Positive,4QGK_A,411,HIS
Positive,4QGK_A,415,SER
Positive,4QGK_A,419,PHE
Positive,4QGK_A,423,ARG
Positive,4QGK_A,447,LYS
