Negative,4RKK_A,13,VAL
Negative,4RKK_A,45,THR
Negative,4RKK_A,52,LEU
Negative,4RKK_A,176,VAL
Negative,4RKK_A,227,ALA
Negative,4RKK_A,261,ILE
Negative,4RKK_A,314,GLN
Positive,4RKK_A,32,TRP
Positive,4RKK_A,84,PHE
Positive,4RKK_A,91,ARG
Positive,4RKK_A,108,ARG
Positive,4RKK_A,171,ARG
Positive,4RKK_A,194,THR
Positive,4RKK_A,279,GLY
Positive,4RKK_A,293,GLN
Positive,4RKK_A,294,TYR
Positive,4RKK_A,301,PRO
Positive,4RKK_A,310,LEU
