Negative,4WAF_A,535,SER
Negative,4WAF_A,51,LYS
Negative,4WAF_A,120,ALA
Negative,4WAF_A,301,CYS
Negative,4WAF_A,741,ARG
Negative,4WAF_A,1040,MET
Positive,4WAF_A,542,GLU
Positive,4WAF_A,545,GLU
Positive,4WAF_A,1047,HIS
