Positive,4XWH_A,35,LEU
Positive,4XWH_A,38,ARG
Positive,4XWH_A,77,VAL
Positive,4XWH_A,82,GLY
Positive,4XWH_A,156,TRP
Positive,4XWH_A,242,LEU
Positive,4XWH_A,246,ALA
Positive,4XWH_A,335,TYR
Positive,4XWH_A,414,HIS
Positive,4XWH_A,446,GLU
Positive,4XWH_A,482,ARG
Positive,4XWH_A,501,VAL
Positive,4XWH_A,516,PRO
Positive,4XWH_A,520,ARG
Positive,4XWH_A,521,PRO
Positive,4XWH_A,534,SER
Positive,4XWH_A,649,TRP
