Positive,5C1Z_B,42,ARG
Positive,5C1Z_B,46,ALA
Positive,5C1Z_B,161,LYS
Positive,5C1Z_B,192,MET
Positive,5C1Z_B,211,LYS
Positive,5C1Z_B,240,THR
Positive,5C1Z_B,253,CYS
Positive,5C1Z_B,256,ARG
Positive,5C1Z_B,275,ARG
Positive,5C1Z_B,289,CYS
Positive,5C1Z_B,311,GLN
Positive,5C1Z_B,351,THR
Positive,5C1Z_B,371,ALA
Positive,5C1Z_B,430,GLY
Positive,5C1Z_B,431,CYS
Positive,5C1Z_B,437,PRO
