Negative,5DOU_D,84,ILE
Negative,5DOU_D,118,SER
Negative,5DOU_D,124,ASN
Negative,5DOU_D,135,ASP
Negative,5DOU_D,189,PRO
Negative,5DOU_D,253,LYS
Negative,5DOU_D,259,ILE
Negative,5DOU_D,279,ARG
Negative,5DOU_D,308,THR
Negative,5DOU_D,381,THR
Negative,5DOU_D,403,ALA
Negative,5DOU_D,500,GLN
Negative,5DOU_D,603,ARG
Negative,5DOU_D,624,LYS
Negative,5DOU_D,868,GLU
Negative,5DOU_D,888,GLU
Negative,5DOU_D,973,ASP
Negative,5DOU_D,1050,GLY
Negative,5DOU_D,1123,ASP
Negative,5DOU_D,1170,VAL
Negative,5DOU_D,1287,ASN
Negative,5DOU_D,1462,PRO
Negative,5DOU_D,607,MET
Negative,5DOU_D,840,ARG
Negative,5DOU_D,1292,HIS
Positive,5DOU_D,123,SER
Positive,5DOU_D,337,HIS
Positive,5DOU_D,678,GLN
Positive,5DOU_D,774,PRO
Positive,5DOU_D,987,GLY
Positive,5DOU_D,1411,PRO
Positive,5DOU_D,1453,ARG
Positive,5DOU_D,1491,TYR
