Negative,5EQG_A,55,SER
Negative,5EQG_A,183,LYS
Negative,5EQG_A,195,ILE
Negative,5EQG_A,234,THR
Negative,5EQG_A,274,ILE
Negative,5EQG_A,349,ILE
Negative,5EQG_A,203,VAL
Negative,5EQG_A,106,SER
Negative,5EQG_A,50,HIS
Negative,5EQG_A,59,THR
Negative,5EQG_A,266,PRO
Positive,5EQG_A,34,ASN
Positive,5EQG_A,91,GLY
Positive,5EQG_A,126,ARG
Positive,5EQG_A,130,GLY
Positive,5EQG_A,153,ARG
Positive,5EQG_A,256,LYS
Positive,5EQG_A,295,THR
Positive,5EQG_A,333,ARG
