Positive,5FGJ_A,39,PHE
Positive,5FGJ_A,42,LYS
Positive,5FGJ_A,46,GLY
Positive,5FGJ_A,47,ALA
Positive,5FGJ_A,56,GLU
Positive,5FGJ_A,65,ILE
Positive,5FGJ_A,67,SER
Positive,5FGJ_A,68,ARG
Positive,5FGJ_A,84,ASP
Positive,5FGJ_A,124,THR
Positive,5FGJ_A,143,ASP
Positive,5FGJ_A,148,GLY
Positive,5FGJ_A,151,ASP
Positive,5FGJ_A,157,ARG
Positive,5FGJ_A,158,ARG
Positive,5FGJ_A,161,PHE
Positive,5FGJ_A,164,ILE
Positive,5FGJ_A,171,GLY
Positive,5FGJ_A,173,PRO
Positive,5FGJ_A,174,ILE
Positive,5FGJ_A,177,VAL
Positive,5FGJ_A,190,VAL
Positive,5FGJ_A,201,HIS
Positive,5FGJ_A,207,ASN
Positive,5FGJ_A,211,PRO
Positive,5FGJ_A,213,LEU
Positive,5FGJ_A,218,GLY
Positive,5FGJ_A,221,GLU
Positive,5FGJ_A,222,ASP
Positive,5FGJ_A,224,ILE
Positive,5FGJ_A,225,PRO
Positive,5FGJ_A,230,VAL
Positive,5FGJ_A,233,PHE
Positive,5FGJ_A,238,THR
Positive,5FGJ_A,241,ARG
Positive,5FGJ_A,243,ARG
Positive,5FGJ_A,244,PRO
Positive,5FGJ_A,245,VAL
Positive,5FGJ_A,247,GLY
Positive,5FGJ_A,249,LEU
Positive,5FGJ_A,252,ARG
Positive,5FGJ_A,255,LEU
Positive,5FGJ_A,259,ALA
Positive,5FGJ_A,270,ARG
Positive,5FGJ_A,273,SER
Positive,5FGJ_A,276,MET
Positive,5FGJ_A,277,TYR
Positive,5FGJ_A,280,GLU
Positive,5FGJ_A,281,PRO
Positive,5FGJ_A,282,ASP
Positive,5FGJ_A,283,ILE
Positive,5FGJ_A,297,ARG
Positive,5FGJ_A,299,PHE
Positive,5FGJ_A,300,ALA
Positive,5FGJ_A,303,SER
Positive,5FGJ_A,306,ILE
Positive,5FGJ_A,309,ALA
Positive,5FGJ_A,310,SER
Positive,5FGJ_A,311,LEU
Positive,5FGJ_A,318,ILE
Positive,5FGJ_A,322,ALA
Positive,5FGJ_A,331,PHE
Positive,5FGJ_A,338,ASP
Positive,5FGJ_A,342,ALA
Positive,5FGJ_A,345,ALA
Positive,5FGJ_A,349,SER
Positive,5FGJ_A,350,SER
Positive,5FGJ_A,377,TYR
Positive,5FGJ_A,380,THR
Positive,5FGJ_A,386,TYR
Positive,5FGJ_A,387,TYR
Positive,5FGJ_A,388,VAL
Positive,5FGJ_A,390,GLU
Positive,5FGJ_A,395,ALA
Positive,5FGJ_A,403,ALA
Positive,5FGJ_A,408,ARG
Positive,5FGJ_A,413,ARG
Positive,5FGJ_A,414,TYR
Positive,5FGJ_A,415,ASP
Positive,5FGJ_A,418,THR
