Positive,5FQL_A,54,TYR
Positive,5FQL_A,68,ALA
Positive,5FQL_A,71,SER
Positive,5FQL_A,73,LEU
Positive,5FQL_A,82,ALA
Positive,5FQL_A,85,ALA
Positive,5FQL_A,86,PRO
Positive,5FQL_A,88,ARG
Positive,5FQL_A,92,LEU
Positive,5FQL_A,95,ARG
Positive,5FQL_A,117,SER
Positive,5FQL_A,120,PRO
Positive,5FQL_A,121,GLN
Positive,5FQL_A,132,SER
Positive,5FQL_A,134,GLY
Positive,5FQL_A,135,LYS
Positive,5FQL_A,140,GLY
Positive,5FQL_A,148,ASP
Positive,5FQL_A,159,HIS
Positive,5FQL_A,182,LEU
Positive,5FQL_A,205,ALA
Positive,5FQL_A,221,LEU
Positive,5FQL_A,224,GLY
Positive,5FQL_A,225,TYR
Positive,5FQL_A,227,LYS
Positive,5FQL_A,228,PRO
Positive,5FQL_A,229,HIS
Positive,5FQL_A,259,LEU
Positive,5FQL_A,265,ASN
Positive,5FQL_A,308,ASP
Positive,5FQL_A,309,THR
Positive,5FQL_A,314,LEU
Positive,5FQL_A,333,SER
Positive,5FQL_A,334,ASP
Positive,5FQL_A,335,HIS
Positive,5FQL_A,336,GLY
Positive,5FQL_A,337,TRP
Positive,5FQL_A,339,LEU
Positive,5FQL_A,341,GLU
Positive,5FQL_A,347,LYS
Positive,5FQL_A,349,SER
Positive,5FQL_A,358,PRO
Positive,5FQL_A,403,LEU
Positive,5FQL_A,422,CYS
Positive,5FQL_A,432,CYS
Positive,5FQL_A,465,GLN
Positive,5FQL_A,467,PRO
Positive,5FQL_A,468,ARG
Positive,5FQL_A,478,ASP
Positive,5FQL_A,480,PRO
Positive,5FQL_A,485,ILE
Positive,5FQL_A,490,TYR
Positive,5FQL_A,502,TRP
Positive,5FQL_A,521,GLU
