Negative,5FTN_A,491,GLU
Negative,5FTN_A,44,PRO
Negative,5FTN_A,82,ILE
Negative,5FTN_A,483,GLU
Negative,5FTN_A,613,THR
Negative,5FTN_A,673,GLU
Negative,5FTN_A,733,ARG
Positive,5FTN_A,95,ARG
Positive,5FTN_A,155,ARG
Positive,5FTN_A,159,ARG
Positive,5FTN_A,592,ASP
