Negative,5GGI_B,221,PHE
Negative,5GGI_B,639,VAL
Negative,5GGI_B,545,VAL
Negative,5GGI_B,583,LYS
Negative,5GGI_B,125,ARG
Negative,5GGI_B,598,HIS
Negative,5GGI_B,646,PRO
Positive,5GGI_B,223,GLU
Positive,5GGI_B,269,CYS
Positive,5GGI_B,493,PRO
Positive,5GGI_B,556,ASP
