Positive,5IN3_B,44,VAL
Positive,5IN3_B,74,LEU
Positive,5IN3_B,135,SER
Positive,5IN3_B,142,MET
Positive,5IN3_B,148,ARG
Positive,5IN3_B,151,VAL
Positive,5IN3_B,171,PHE
Positive,5IN3_B,195,LEU
Positive,5IN3_B,231,ARG
Positive,5IN3_B,314,ASN
Positive,5IN3_B,333,ARG
