Negative,5IRV_C,391,GLU
Negative,5IRV_C,117,SER
Negative,5IRV_C,175,VAL
Negative,5IRV_C,208,ASN
Negative,5IRV_C,212,ASP
Negative,5IRV_C,223,ILE
Negative,5IRV_C,238,ILE
Negative,5IRV_C,247,LEU
Negative,5IRV_C,363,LEU
Negative,5IRV_C,479,ILE
Positive,5IRV_C,35,PRO
Positive,5IRV_C,96,ARG
Positive,5IRV_C,347,ARG
Positive,5IRV_C,358,ARG
Positive,5IRV_C,417,PHE
