Negative,5J5Z_B,159,THR
Negative,5J5Z_B,4,PRO
Negative,5J5Z_B,132,ALA
Negative,5J5Z_B,216,VAL
Negative,5J5Z_B,130,THR
Negative,5J5Z_B,260,ALA
Negative,5J5Z_B,348,HIS
Negative,5J5Z_B,114,HIS
Negative,5J5Z_B,140,ASP
Negative,5J5Z_B,209,PHE
Negative,5J5Z_B,244,THR
Negative,5J5Z_B,421,LEU
Negative,5J5Z_B,471,SER
Negative,5J5Z_B,65,MET
Negative,5J5Z_B,78,MET
Negative,5J5Z_B,118,TYR
Negative,5J5Z_B,249,LYS
Negative,5J5Z_B,6,ASP
Negative,5J5Z_B,146,ILE
Negative,5J5Z_B,299,ARG
Negative,5J5Z_B,381,TYR
Negative,5J5Z_B,409,GLN
Negative,5J5Z_B,1,ALA
Negative,5J5Z_B,316,TYR
Negative,5J5Z_B,415,VAL
Negative,5J5Z_B,120,LYS
Negative,5J5Z_B,225,ASN
Negative,5J5Z_B,262,SER
Positive,5J5Z_B,194,GLY
Positive,5J5Z_B,460,ARG
