Negative,5JCO_C,18,ALA
Negative,5JCO_C,35,ASN
Negative,5JCO_C,48,SER
Negative,5JCO_C,57,HIS
Negative,5JCO_C,80,ALA
Negative,5JCO_C,95,SER
Negative,5JCO_C,155,VAL
Negative,5JCO_C,189,ILE
Negative,5JCO_C,320,ARG
Negative,5JCO_C,364,SER
Negative,5JCO_C,398,TYR
Negative,5JCO_C,365,SER
Negative,5JCO_C,124,CYS
Negative,5JCO_C,275,ALA
Positive,5JCO_C,62,ARG
Positive,5JCO_C,178,THR
Positive,5JCO_C,262,ARG
Positive,5JCO_C,302,ALA
Positive,5JCO_C,323,MET
Positive,5JCO_C,380,ARG
Positive,5JCO_C,410,GLU
Positive,5JCO_C,417,ASP
