Positive,5JG8_B,103,LEU
Positive,5JG8_B,130,VAL
Positive,5JG8_B,157,CYS
Positive,5JG8_B,184,PRO
Positive,5JG8_B,225,LEU
Positive,5JG8_B,228,ARG
Positive,5JG8_B,241,ALA
Positive,5JG8_B,244,TRP
Positive,5JG8_B,251,ASP
Positive,5JG8_B,278,ASP
Positive,5JG8_B,281,ALA
Positive,5JG8_B,292,GLN
Positive,5JG8_B,341,LEU
Positive,5JG8_B,391,TRP
Positive,5JG8_B,563,ASP
Positive,5JG8_B,600,ARG
