Positive,5JNX_A,177,CYS
Positive,5JNX_A,237,PRO
Positive,5JNX_A,473,SER
Positive,5JNX_A,510,HIS
Positive,5JNX_A,518,ARG
Positive,5JNX_A,889,VAL
Positive,5JNX_A,950,VAL
Positive,5JNX_A,956,CYS
Positive,5JNX_A,1061,ILE
Positive,5JNX_A,1088,TYR
Positive,5JNX_A,1213,LEU
