Negative,5KYN_A,120,VAL
Negative,5KYN_A,233,VAL
Negative,5KYN_A,391,THR
Negative,5KYN_A,471,ILE
Negative,5KYN_A,416,ILE
Negative,5KYN_A,51,LEU
Negative,5KYN_A,139,MET
Negative,5KYN_A,394,MET
Negative,5KYN_A,566,SER
Positive,5KYN_A,14,ARG
Positive,5KYN_A,109,GLU
Positive,5KYN_A,495,ARG
Positive,5KYN_A,382,PHE
