Negative,5KZW_A,104,GLU
Negative,5KZW_A,352,GLN
Negative,5KZW_A,410,SER
Negative,5KZW_A,473,GLY
Negative,5KZW_A,535,ASN
Negative,5KZW_A,679,SER
Negative,5KZW_A,877,ILE
Negative,5KZW_A,912,ALA
Negative,5KZW_A,944,GLY
Positive,5KZW_A,103,CYS
Positive,5KZW_A,191,TYR
Positive,5KZW_A,219,GLY
Positive,5KZW_A,262,GLU
Positive,5KZW_A,293,GLY
Positive,5KZW_A,299,LEU
Positive,5KZW_A,308,HIS
Positive,5KZW_A,309,GLY
Positive,5KZW_A,312,LEU
Positive,5KZW_A,318,MET
Positive,5KZW_A,330,TRP
Positive,5KZW_A,355,LEU
Positive,5KZW_A,361,PRO
Positive,5KZW_A,374,CYS
Positive,5KZW_A,375,ARG
Positive,5KZW_A,377,GLY
Positive,5KZW_A,401,GLN
Positive,5KZW_A,402,TRP
Positive,5KZW_A,404,ASP
Positive,5KZW_A,405,LEU
Positive,5KZW_A,408,MET
Positive,5KZW_A,437,ARG
Positive,5KZW_A,455,TYR
Positive,5KZW_A,457,PRO
Positive,5KZW_A,478,GLY
Positive,5KZW_A,481,TRP
Positive,5KZW_A,489,ASP
Positive,5KZW_A,519,MET
Positive,5KZW_A,521,GLU
Positive,5KZW_A,522,PRO
Positive,5KZW_A,552,LEU
Positive,5KZW_A,566,SER
Positive,5KZW_A,575,TYR
Positive,5KZW_A,579,GLU
Positive,5KZW_A,599,SER
Positive,5KZW_A,600,ARG
Positive,5KZW_A,607,GLY
Positive,5KZW_A,615,GLY
Positive,5KZW_A,619,SER
Positive,5KZW_A,643,GLY
Positive,5KZW_A,645,ASP
Positive,5KZW_A,660,ARG
Positive,5KZW_A,702,ARG
Positive,5KZW_A,725,ARG
Positive,5KZW_A,768,PRO
Positive,5KZW_A,880,ALA
Positive,5KZW_A,901,LEU
