Negative,5MPM_A,373,GLU
Negative,5MPM_A,644,ASP
Negative,5MPM_A,376,THR
Negative,5MPM_A,661,ASN
Negative,5MPM_A,15,HIS
Negative,5MPM_A,437,VAL
Positive,5MPM_A,65,LEU
Positive,5MPM_A,211,GLY
Positive,5MPM_A,268,CYS
Positive,5MPM_A,318,CYS
Positive,5MPM_A,560,CYS
Positive,5MPM_A,602,PRO
Positive,5MPM_A,675,PHE
Positive,5MPM_A,683,LYS
Positive,5MPM_A,767,ASN
Positive,5MPM_A,838,ALA
Positive,5MPM_A,843,VAL
Positive,5MPM_A,875,CYS
Positive,5MPM_A,943,HIS
