Positive,5NV6_A,113,VAL
Positive,5NV6_A,123,ASP
Positive,5NV6_A,124,ARG
Positive,5NV6_A,518,LEU
Positive,5NV6_A,527,LEU
Positive,5NV6_A,538,THR
Positive,5NV6_A,539,VAL
Positive,5NV6_A,544,ASN
Positive,5NV6_A,555,ARG
Positive,5NV6_A,572,HIS
Positive,5NV6_A,594,GLY
Positive,5NV6_A,623,GLY
Positive,5NV6_A,626,HIS
