Positive,5VBU_A,57,GLY
Positive,5VBU_A,65,GLY
Positive,5VBU_A,78,ILE
Positive,5VBU_A,108,LEU
Positive,5VBU_A,122,LYS
Positive,5VBU_A,143,LEU
Positive,5VBU_A,168,LEU
Positive,5VBU_A,173,ILE
Positive,5VBU_A,212,VAL
Positive,5VBU_A,237,ILE
Positive,5VBU_A,238,VAL
Positive,5VBU_A,240,MET
Positive,5VBU_A,282,VAL
Positive,5VBU_A,292,GLY
Positive,5VBU_A,293,GLY
Positive,5VBU_A,301,LEU
Positive,5VBU_A,305,VAL
Positive,5VBU_A,321,GLU
Positive,5VBU_A,342,ARG
Positive,5VBU_A,355,ARG
Positive,5VBU_A,357,ARG
Positive,5VBU_A,363,ALA
Positive,5VBU_A,376,GLY
Positive,5VBU_A,381,GLU
Positive,5VBU_A,409,ARG
Positive,5VBU_A,425,GLY
Positive,5VBU_A,427,ARG
Positive,5VBU_A,484,ARG
