Negative,5W21_A,46,SER
Negative,5W21_A,348,ILE
Negative,5W21_A,393,ASN
Negative,5W21_A,485,ASP
Negative,5W21_A,527,VAL
Negative,5W21_A,623,ALA
Negative,5W21_A,930,TYR
Negative,5W21_A,961,ARG
Positive,5W21_A,193,HIS
