Negative,5XP3_B,201,CYS
Negative,5XP3_B,170,MET
Negative,5XP3_B,316,ILE
Negative,5XP3_B,59,TYR
Negative,5XP3_B,35,SER
Negative,5XP3_B,64,ILE
Negative,5XP3_B,23,VAL
Negative,5XP3_B,218,THR
Negative,5XP3_B,333,VAL
Negative,5XP3_B,238,THR
Negative,5XP3_B,48,ASN
Negative,5XP3_B,5,VAL
Negative,5XP3_B,80,PRO
Negative,5XP3_B,381,ILE
Negative,5XP3_B,221,THR
Negative,5XP3_B,364,SER
Negative,5XP3_B,78,SER
Negative,5XP3_B,165,ASN
Negative,5XP3_B,368,ILE
Negative,5XP3_B,82,GLY
Negative,5XP3_B,304,ASP
Negative,5XP3_B,18,ALA
Negative,5XP3_B,200,TYR
Negative,5XP3_B,278,SER
Negative,5XP3_B,159,TYR
Negative,5XP3_B,335,ASN
Negative,5XP3_B,37,HIS
Negative,5XP3_B,349,VAL
Negative,5XP3_B,280,GLN
Negative,5XP3_B,127,CYS
Negative,5XP3_B,313,VAL
Negative,5XP3_B,198,GLU
Negative,5XP3_B,163,ILE
Positive,5XP3_B,172,SER
Positive,5XP3_B,265,PHE
