Negative,5XTC_i,15,ALA
Negative,5XTC_i,49,ASN
Negative,5XTC_i,76,PHE
Negative,5XTC_i,94,SER
Negative,5XTC_i,147,PRO
Negative,5XTC_i,284,THR
Negative,5XTC_i,18,LEU
Negative,5XTC_i,100,MET
Negative,5XTC_i,215,ALA
Positive,5XTC_i,259,GLY
