Negative,6ANU_C,4,ASP
Negative,6ANU_C,305,MET
Negative,6ANU_C,2,ASP
Negative,6ANU_C,319,ALA
Negative,6ANU_C,96,VAL
Negative,6ANU_C,348,SER
Negative,6ANU_C,229,THR
Negative,6ANU_C,323,SER
Negative,6ANU_C,73,HIS
Negative,6ANU_C,153,MET
Negative,6ANU_C,234,SER
Negative,6ANU_C,231,ALA
Negative,6ANU_C,216,LEU
Negative,6ANU_C,250,ILE
Negative,6ANU_C,271,SER
Negative,6ANU_C,330,ILE
Negative,6ANU_C,224,GLU
Negative,6ANU_C,306,TYR
Negative,6ANU_C,303,THR
Negative,6ANU_C,3,ASP
Negative,6ANU_C,135,ALA
Negative,6ANU_C,30,VAL
Negative,6ANU_C,265,SER
Negative,6ANU_C,277,THR
Negative,6ANU_C,355,MET
Negative,6ANU_C,232,SER
Negative,6ANU_C,325,MET
Negative,6ANU_C,176,LEU
Negative,6ANU_C,142,LEU
Negative,6ANU_C,71,ILE
Negative,6ANU_C,248,ILE
Negative,6ANU_C,192,ILE
Negative,6ANU_C,162,THR
Negative,6ANU_C,43,VAL
Negative,6ANU_C,267,LEU
Negative,6ANU_C,169,TYR
Negative,6ANU_C,329,ILE
Negative,6ANU_C,235,SER
Negative,6ANU_C,189,LEU
Negative,6ANU_C,97,ALA
Negative,6ANU_C,217,CYS
Negative,6ANU_C,257,CYS
Negative,6ANU_C,41,GLN
Negative,6ANU_C,340,TRP
Negative,6ANU_C,52,SER
Negative,6ANU_C,314,GLN
Negative,6ANU_C,48,GLY
Negative,6ANU_C,220,ALA
Negative,6ANU_C,262,PHE
Negative,6ANU_C,247,VAL
Negative,6ANU_C,77,THR
Negative,6ANU_C,212,ILE
Negative,6ANU_C,123,MET
Negative,6ANU_C,239,SER
Negative,6ANU_C,68,LYS
Negative,6ANU_C,132,MET
Positive,6ANU_C,183,ARG
Positive,6ANU_C,370,VAL
