Negative,6C1D_C,2,GLU
Negative,6C1D_C,299,MET
Negative,6C1D_C,155,SER
Negative,6C1D_C,89,THR
Negative,6C1D_C,176,MET
Negative,6C1D_C,5,THR
Negative,6C1D_C,1,ASP
Negative,6C1D_C,194,THR
Negative,6C1D_C,103,THR
Negative,6C1D_C,225,ASN
Negative,6C1D_C,272,ALA
Negative,6C1D_C,365,ALA
Negative,6C1D_C,153,LEU
Negative,6C1D_C,8,LEU
Negative,6C1D_C,303,THR
Negative,6C1D_C,110,LEU
Negative,6C1D_C,178,LEU
Negative,6C1D_C,190,MET
Negative,6C1D_C,347,ALA
Negative,6C1D_C,360,GLN
Negative,6C1D_C,81,ASP
Negative,6C1D_C,343,GLY
Negative,6C1D_C,129,VAL
Positive,6C1D_C,1,ASP
Positive,6C1D_C,225,ASN
Positive,6C1D_C,40,HIS
Positive,6C1D_C,94,LEU
Positive,6C1D_C,115,ASN
Positive,6C1D_C,132,MET
Positive,6C1D_C,136,ILE
Positive,6C1D_C,163,VAL
Positive,6C1D_C,183,ARG
Positive,6C1D_C,256,ARG
Positive,6C1D_C,259,GLU
Positive,6C1D_C,263,GLN
Positive,6C1D_C,268,GLY
Positive,6C1D_C,269,MET
Positive,6C1D_C,280,ASN
Positive,6C1D_C,286,ASP
Positive,6C1D_C,357,ILE
Positive,6C1D_C,370,VAL
