Negative,6C3P_A,103,SER
Negative,6C3P_A,248,SER
Negative,6C3P_A,353,HIS
Negative,6C3P_A,337,ILE
Negative,6C3P_A,106,THR
Negative,6C3P_A,193,HIS
Negative,6C3P_A,172,ALA
Negative,6C3P_A,313,GLN
Positive,6C3P_A,42,CYS
Positive,6C3P_A,50,ARG
Positive,6C3P_A,53,GLY
Positive,6C3P_A,55,PHE
Positive,6C3P_A,59,VAL
Positive,6C3P_A,166,CYS
Positive,6C3P_A,182,ILE
Positive,6C3P_A,201,ARG
Positive,6C3P_A,254,PRO
Positive,6C3P_A,259,HIS
Positive,6C3P_A,296,ILE
Positive,6C3P_A,355,LEU
