Negative,6EZO_D,21,THR
Negative,6EZO_D,33,GLU
Negative,6EZO_D,87,LYS
Negative,6EZO_D,179,LYS
Negative,6EZO_D,69,THR
Negative,6EZO_D,170,PHE
Negative,6EZO_D,347,ASP
Positive,6EZO_D,171,SER
Positive,6EZO_D,213,GLU
